ActivatedBy__c,ActivatedDate__c,All_Rules__c,Auto_Create__c,BypassValidation__c,CreatedById,CreatedDate,CurrencyIsoCode,Name,Id,IsDeleted,Language__c,LastModifiedById,LastModifiedDate,LastReferencedDate,LastViewedDate,Lifecycle__c,Media__c,Next_Version__c,OwnerId,Previous_Version__c,Product_Type__c,Release_Type__c,Sales_Region__c,Status__c,SystemModstamp,Territory__c,VersionNotes__c,Version__c
0050v000001sN97AAE,4/5/2019,Division In 20th Century Fox ;,TRUE,TRUE,0050v000001sN97AAE,2019-04-05T18:49:42.000Z,USD,PG-Mali-3,aCj0v0000004Je2CAE,FALSE,No Specific Language,0050v000001sN97AAE,2019-04-05T18:50:09.000Z,,,,,,0050v000001sN97AAE,aCj0v0000004JdxCAE,Feature,,,Active,2019-04-05T18:50:09.000Z,,QA,3
0050v000001r4zzAAA,4/8/2019,,TRUE,TRUE,0050v0000023KT4AAM,2019-04-05T21:50:56.000Z,USD,Japan - Fox,aCj0v0000004JfPCAU,FALSE,No Specific Language,0050v000001r4zzAAA,2019-04-08T16:59:44.000Z,,,,,,0050v0000023KT4AAM,aCj0v0000004CQnCAM,Direct to Video;Feature;Movie of the Week,New Release,,Active,2019-04-08T16:59:44.000Z,,Japan Test CFT,2
0050v0000023KQeAAM,4/5/2019,,FALSE,TRUE,0050v0000023KQeAAM,2019-04-05T21:03:47.000Z,USD,United States - Annapurna,aCj0v0000004JeRCAU,FALSE,No Specific Language,0050v0000023KQeAAM,2019-04-05T21:48:00.000Z,,,,,,0050v0000023KQeAAM,aCj0v0000004CR3CAM,Feature,New Release,,Active,2019-04-05T21:48:00.000Z,,add a window,2
0050v000001sN97AAE,4/5/2019,Title Tag In Europa ;,TRUE,TRUE,0050v000001sN97AAE,2019-04-05T18:34:01.000Z,USD,PG-Mail-4,aCj0v0000004JdsCAE,FALSE,No Specific Language,0050v000001sN97AAE,2019-04-05T18:34:27.000Z,,,,,,0050v000001sN97AAE,aCj0v0000004JdnCAE,Feature,,,Active,2019-04-05T18:34:27.000Z,,t,2
0050v000001sN97AAE,4/5/2019,,TRUE,TRUE,0050v000001sN97AAE,2019-04-05T18:20:20.000Z,USD,PG-mali-1,aCj0v0000004JddCAE,FALSE,No Specific Language,0050v000001sN97AAE,2019-04-05T18:21:18.000Z,,,,,,0050v000001sN97AAE,aCj0v0000004CRKCA2,Feature,,,Active,2019-04-05T18:21:18.000Z,,QA,3
0050v000001sN97AAE,4/5/2019,Title Tag In 20th Century Fox;Pathe ;,TRUE,TRUE,0050v000001sN97AAE,2019-04-05T18:56:44.000Z,USD,PG-Mail-5,aCj0v0000004JeCCAU,FALSE,No Specific Language,0050v000001sN97AAE,2019-04-05T19:00:32.000Z,,,,,,0050v000001sN97AAE,aCj0v0000004Je7CAE,Feature,,,Active,2019-04-05T19:00:32.000Z,,QA,2
0050v000002WiFuAAK,4/5/2019,Title Tag In Europa ;,TRUE,FALSE,0050v000002WiFuAAK,2019-04-05T12:20:18.000Z,USD,PG-mali-2,aCj0v0000004CRUCA2,FALSE,No Specific Language,0050v000002WiFuAAK,2019-04-05T12:24:52.000Z,,,,,,0050v000002WiFuAAK,,Feature,,,Active,2019-04-05T12:24:53.000Z,,Initial Version,1
0050v0000023KT4AAM,4/8/2019,Title Tag In UAT Test ;,TRUE,FALSE,0050v0000023KT4AAM,2019-04-08T18:10:36.000Z,USD,Italy UAT Test CFT,aCj0v0000004JiECAU,FALSE,No Specific Language,0050v0000023KT4AAM,2019-04-08T18:13:04.000Z,,,,,,0050v0000023KT4AAM,,Feature,,,Active,2019-04-08T18:13:04.000Z,,Initial Version,1
0050v0000023KQjAAM,4/8/2019,Title Tag In UAT Test ;,TRUE,FALSE,0050v0000023KQjAAM,2019-04-08T18:21:50.000Z,USD,chris' very cool guideline for vod france excl. sony / orange,aCj0v0000004JiiCAE,FALSE,No Specific Language,0050v0000023KQjAAM,2019-04-08T18:22:28.000Z,,,,,,0050v0000023KQjAAM,,Feature,,,Active,2019-04-08T18:22:28.000Z,,Initial Version,1
0050v000002WiFpAAK,4/8/2019,Division In 20th Century Fox ;  Release Year IS > than 2010 ;,TRUE,TRUE,0050v000002WiFpAAK,2019-04-08T06:08:53.000Z,USD,Africa - Fox,aCj0v0000004JfUCAU,FALSE,No Specific Language,0050v000002WiFpAAK,2019-04-08T12:25:21.000Z,,,,,,0050v000002WiFpAAK,aCj0v0000004JfFCAU,Direct to Video;Feature;Movie of the Week,New Release,,Active,2019-04-08T12:25:21.000Z,,test,3
0050v000001r4zzAAA,4/8/2019,,TRUE,TRUE,0050v000001r4zzAAA,2019-04-08T17:03:07.000Z,USD,Benelux - Fox,aCj0v0000004JhkCAE,FALSE,No Specific Language,0050v000001r4zzAAA,2019-04-08T17:05:03.000Z,,,,,,0050v000001r4zzAAA,aCj0v0000004JhLCAU,Direct to Video;Feature;Movie of the Week,New Release,,Active,2019-04-08T17:05:03.000Z,,Removing WG,6
0050H00000AF6QaQAL,4/8/2019,,TRUE,TRUE,0050H00000AF6QaQAL,2019-04-08T18:21:50.000Z,USD,test - greece plan MS,aCj0v0000004JidCAE,FALSE,No Specific Language,0050H00000AF6QaQAL,2019-04-08T18:36:26.000Z,,,,,,0050H00000AF6QaQAL,aCj0v0000004JiJCAU,Feature,,,Active,2019-04-08T18:36:26.000Z,,Initial Version,2
0050v0000023KQeAAM,4/8/2019,,TRUE,FALSE,0050v0000023KQeAAM,2019-04-08T18:14:54.000Z,USD,Emily UAT Test Plan,aCj0v0000004JiOCAU,FALSE,No Specific Language,0050v0000023KQeAAM,2019-04-08T19:10:37.000Z,,,,,aCj0v0000004JjHCAU,0050v0000023KQeAAM,aCj0v0000004Jh6CAE,Direct to Video;Feature,,,Active,2019-04-08T19:10:37.000Z,,Initial Version,2
0050v0000023KQjAAM,4/8/2019,Title Tag In UAT Test ;,TRUE,FALSE,0050v0000023KQjAAM,2019-04-08T18:09:18.000Z,USD,chris' cool plan guideline for pay brazil,aCj0v0000004JhzCAE,FALSE,No Specific Language,0050v0000023KQjAAM,2019-04-08T18:13:03.000Z,,,,,,0050v0000023KQjAAM,,Feature,,,Active,2019-04-08T18:13:03.000Z,,Initial Version,1
0050v000001r4zzAAA,4/8/2019,,FALSE,TRUE,0050v000001r4zzAAA,2019-04-08T16:43:07.000Z,USD,Brazil - Fox,aCj0v0000004JhBCAU,FALSE,No Specific Language,0050v000001r4zzAAA,2019-04-08T16:43:48.000Z,,,,,,0050v000001r4zzAAA,aCj0v0000004Jf5CAE,Direct to Video;Feature;Movie of the Week,New Release,,Active,2019-04-08T16:43:48.000Z,,Removing Test WG,3
0050v000001r4zzAAA,4/8/2019,,FALSE,TRUE,0050v000001r4zzAAA,2019-04-08T16:44:46.000Z,USD,France - Fox,aCj0v0000004JhGCAU,FALSE,No Specific Language,0050v000001r4zzAAA,2019-04-08T16:45:32.000Z,,,,,,0050v000001r4zzAAA,aCj0v0000004JfKCAU,Direct to Video;Feature;Movie of the Week,New Release,,Active,2019-04-08T16:45:32.000Z,,Removing WG,3
0050v000001r4zzAAA,4/8/2019,,TRUE,FALSE,0050v000001r4zzAAA,2019-04-08T16:50:45.000Z,USD,Sarah Italy  - Fox clone,aCj0v0000004JhVCAU,FALSE,No Specific Language,0050v000002WiFuAAK,2019-04-10T04:43:41.000Z,,,,,aCj0v0000004JtWCAU,0050v000001r4zzAAA,aCj0v0000004JegCAE,Direct to Video;Feature;Movie of the Week,New Release,,Active,2019-04-10T04:43:41.000Z,,Test,2
0050v000001r4zzAAA,4/8/2019,,TRUE,TRUE,0050v000001r4zzAAA,2019-04-08T16:56:45.000Z,USD,Greece - Fox,aCj0v0000004JhaCAE,FALSE,No Specific Language,0050v000001r4zzAAA,2019-04-08T16:57:05.000Z,,,,,,0050v000001r4zzAAA,aCj0v0000004JevCAE,Direct to Video;Feature;Movie of the Week,New Release,,Active,2019-04-08T16:57:05.000Z,,Removing WG,4
0050v0000023KT4AAM,4/8/2019,Title Tag In UAT Test ;,TRUE,FALSE,0050v0000023KT4AAM,2019-04-08T18:20:54.000Z,USD,Japan - Features - UAT Test CFT,aCj0v0000004JiYCAU,FALSE,No Specific Language,0050v0000023KT4AAM,2019-04-08T18:37:32.000Z,,,,,aCj0v0000004JisCAE,0050v0000023KT4AAM,,Feature,,,Active,2019-04-08T18:37:32.000Z,,Initial Version,1
0050v000002WiFpAAK,4/8/2019,Release Year IS = than 2010 ;,TRUE,FALSE,0050v000002WiFpAAK,2019-04-08T15:25:34.000Z,USD,pg- Montenegro,aCj0v0000004Jh1CAE,FALSE,No Specific Language,0050v000001qyvjAAA,2019-04-10T03:54:51.000Z,,,,,,0050v000002WiFpAAK,,Feature,,,Active,2019-04-10T03:54:51.000Z,,Initial Version,1
0050v0000023KQjAAM,4/8/2019,Title Tag In UAT Test ;,TRUE,FALSE,0050v0000023KQjAAM,2019-04-08T18:20:33.000Z,USD,chris' not so cool guideline for pay belgium flemish,aCj0v0000004JiTCAU,FALSE,No Specific Language,0050v0000023KQjAAM,2019-04-08T18:48:42.000Z,,,,,aCj0v0000004Jj2CAE,0050v0000023KQjAAM,,Feature,,,Active,2019-04-08T18:48:42.000Z,,Initial Version,1
0050H00000AF6RmQAL,4/8/2019,,TRUE,TRUE,0050H00000AF6RmQAL,2019-04-08T18:33:46.000Z,USD,Test - SarahL,aCj0v0000004JinCAE,FALSE,No Specific Language,0050H00000AF6RmQAL,2019-04-08T18:36:04.000Z,,,,,,0050H00000AF6RmQAL,aCj0v0000004Ji9CAE,Feature,,,Active,2019-04-08T18:36:04.000Z,,Adding a rule,2
0050v0000025IBRAA2,4/8/2019,,TRUE,TRUE,0050v0000025IBRAA2,2019-04-08T18:54:39.000Z,USD,Andorra,aCj0v0000004Jj7CAE,FALSE,No Specific Language,0050v0000025IBRAA2,2019-04-08T18:55:06.000Z,,,,,,0050v0000025IBRAA2,aCj0v0000004JixCAE,Feature,,Asia Pacific,Active,2019-04-08T18:55:06.000Z,,Adding Pay TV - Angola (1R),3
0050v000002WiFuAAK,4/9/2019,,TRUE,TRUE,0050v000002WiFuAAK,2019-04-09T14:58:24.000Z,USD,PG-1495,aCj0v0000004JogCAE,FALSE,No Specific Language,0050v000002WiFuAAK,2019-04-09T14:59:26.000Z,,,,,,0050v000002WiFuAAK,aCj0v0000004JobCAE,Feature,,,Active,2019-04-09T14:59:26.000Z,,Initial Version,3
0050v000001sN97AAE,4/9/2019,,TRUE,TRUE,0050v000001sN97AAE,2019-04-09T17:50:55.000Z,USD,Italy - Fox,aCj0v0000004JqSCAU,FALSE,No Specific Language,0050v000001sN97AAE,2019-04-09T17:56:40.000Z,,,,,,0050v000001sN97AAE,aCj0v0000004JhpCAE,Direct to Video;Feature;Movie of the Week,New Release,,Active,2019-04-09T17:56:40.000Z,,QA Test,5
0050v000002WiFpAAK,4/9/2019,,TRUE,TRUE,0050v000002WiFpAAK,2019-04-10T06:17:15.000Z,USD,Australia - Fox,aCj0v0000004JtgCAE,FALSE,No Specific Language,0050v000002WiFpAAK,2019-04-10T06:23:02.000Z,2019-04-10T07:46:18.000Z,2019-04-10T07:46:18.000Z,,,,0050v000002WiFpAAK,aCj0v0000004CRjCAM,Direct to Video;Feature;Movie of the Week,New Release,,Active,2019-04-10T06:23:02.000Z,,Initial Version,3
0050v000001tfqbAAA,4/10/2019,Division In 20th Century Fox ;  Division In Fox 2000 ;,TRUE,FALSE,0050v000001tfqbAAA,2019-04-10T07:16:27.000Z,USD,PG YV 04102019:1,aCj0v0000004JtqCAE,FALSE,No Specific Language,0050v000001tfqbAAA,2019-04-10T07:18:40.000Z,,,,,,0050v000001tfqbAAA,,Feature,,,Active,2019-04-10T07:18:40.000Z,,Initial Version,1
,,,TRUE,FALSE,0050v000001rVLYAA2,2019-04-03T22:33:22.000Z,USD,Baltics - Fox,aCj0v0000004CQXCA2,FALSE,No Specific Language,0050v000001rVLYAA2,2019-04-07T15:53:11.000Z,2019-04-10T00:07:32.000Z,2019-04-10T00:07:32.000Z,,,,0050v000001rVLYAA2,,Direct to Video;Feature;Movie of the Week,New Release,,Active,2019-04-07T15:53:11.000Z,,Initial Version,1
,,,TRUE,FALSE,0050v000001rVLYAA2,2019-04-03T22:33:22.000Z,USD,Canada - Fox,aCj0v0000004CQaCAM,FALSE,No Specific Language,0050v000001rVLYAA2,2019-04-07T15:53:11.000Z,,,,,,0050v000001rVLYAA2,,Direct to Video;Feature;Movie of the Week,New Release,,Active,2019-04-07T15:53:11.000Z,,Initial Version,1
,,,TRUE,FALSE,0050v000001rVLYAA2,2019-04-03T22:33:22.000Z,USD,Central Europe and Poland - Fox,aCj0v0000004CQbCAM,FALSE,No Specific Language,0050v000001rVLYAA2,2019-04-07T15:53:11.000Z,,,,,aCj0v0000004JeWCAU,0050v000001rVLYAA2,,Direct to Video;Feature;Movie of the Week,New Release,,Active,2019-04-07T15:53:11.000Z,,Initial Version,1
,,,TRUE,FALSE,0050v000001rVLYAA2,2019-04-03T22:33:22.000Z,USD,China - Fox,aCj0v0000004CQcCAM,FALSE,No Specific Language,0050v000001rVLYAA2,2019-04-07T15:53:11.000Z,,,,,,0050v000001rVLYAA2,,Feature,New Release,,Active,2019-04-07T15:53:11.000Z,,Initial Version,1
,,,TRUE,FALSE,0050v000001rVLYAA2,2019-04-03T22:33:22.000Z,USD,Germany - Fox,aCj0v0000004CQeCAM,FALSE,No Specific Language,0050v000001rVLYAA2,2019-04-07T15:53:11.000Z,,,,,,0050v000001rVLYAA2,,Direct to Video;Feature;Movie of the Week,New Release,,Active,2019-04-07T15:53:11.000Z,,Initial Version,1
,,,TRUE,FALSE,0050v000001rVLYAA2,2019-04-03T22:33:22.000Z,USD,Hotel - Canada,aCj0v0000004CQgCAM,FALSE,No Specific Language,0050v000001rVLYAA2,2019-04-07T15:53:11.000Z,,,,,,0050v000001rVLYAA2,,Feature,New Release,,Active,2019-04-07T15:53:11.000Z,,Initial Version,1
,,,TRUE,FALSE,0050v000001rVLYAA2,2019-04-03T22:33:22.000Z,USD,Hotel - International,aCj0v0000004CQhCAM,FALSE,No Specific Language,0050v000001rVLYAA2,2019-04-07T15:53:11.000Z,,,,,,0050v000001rVLYAA2,,Feature,New Release,,Active,2019-04-07T15:53:11.000Z,,Initial Version,1
,,,TRUE,FALSE,0050v000001rVLYAA2,2019-04-03T22:33:22.000Z,USD,Hotel - United States,aCj0v0000004CQiCAM,FALSE,No Specific Language,0050v000001rVLYAA2,2019-04-07T15:53:11.000Z,,,,,,0050v000001rVLYAA2,,Feature,New Release,,Active,2019-04-07T15:53:11.000Z,,Initial Version,1
,,,TRUE,FALSE,0050v000001rVLYAA2,2019-04-03T22:33:22.000Z,USD,Iceland - Fox,aCj0v0000004CQjCAM,FALSE,No Specific Language,0050v000001rVLYAA2,2019-04-07T15:53:11.000Z,,,,,,0050v000001rVLYAA2,,Direct to Video;Feature;Movie of the Week,New Release,,Active,2019-04-07T15:53:11.000Z,,Initial Version,1
,,,TRUE,FALSE,0050v000001rVLYAA2,2019-04-03T22:33:22.000Z,USD,India - Fox,aCj0v0000004CQkCAM,FALSE,No Specific Language,0050v000001rVLYAA2,2019-04-07T15:53:11.000Z,,,,,,0050v000001rVLYAA2,,Direct to Video;Feature;Movie of the Week,New Release,,Active,2019-04-07T15:53:11.000Z,,Initial Version,1
,,,TRUE,FALSE,0050v000001rVLYAA2,2019-04-03T22:33:22.000Z,USD,Israel - Fox,aCj0v0000004CQlCAM,FALSE,No Specific Language,0050v000001rVLYAA2,2019-04-07T15:53:11.000Z,,,,,,0050v000001rVLYAA2,,Direct to Video;Feature;Movie of the Week,New Release,,Active,2019-04-07T15:53:11.000Z,,Initial Version,1
,,,TRUE,FALSE,0050v000001rVLYAA2,2019-04-03T22:33:22.000Z,USD,Latin America - Fox,aCj0v0000004CQoCAM,FALSE,No Specific Language,0050v000001rVLYAA2,2019-04-07T15:53:11.000Z,,,,,,0050v000001rVLYAA2,,Direct to Video;Feature;Movie of the Week,New Release,,Active,2019-04-07T15:53:11.000Z,,Initial Version,1
,,,TRUE,FALSE,0050v000001rVLYAA2,2019-04-03T22:33:22.000Z,USD,Malta - Fox,aCj0v0000004CQpCAM,FALSE,No Specific Language,0050v000001rVLYAA2,2019-04-07T15:53:11.000Z,,,,,,0050v000001rVLYAA2,,Direct to Video;Feature;Movie of the Week,New Release,,Active,2019-04-07T15:53:11.000Z,,Initial Version,1
,,,TRUE,FALSE,0050v000001rVLYAA2,2019-04-03T22:33:22.000Z,USD,Middle East - Fox,aCj0v0000004CQqCAM,FALSE,No Specific Language,0050v000001rVLYAA2,2019-04-07T15:53:11.000Z,,,,,,0050v000001rVLYAA2,,Direct to Video;Feature;Movie of the Week,New Release,,Active,2019-04-07T15:53:11.000Z,,Initial Version,1
,,,TRUE,FALSE,0050v000001rVLYAA2,2019-04-03T22:33:22.000Z,USD,New Zealand - Fox,aCj0v0000004CQrCAM,FALSE,No Specific Language,0050v000001rVLYAA2,2019-04-07T15:53:11.000Z,,,,,,0050v000001rVLYAA2,,Direct to Video;Feature;Movie of the Week,New Release,,Active,2019-04-07T15:53:11.000Z,,Initial Version,1
,,,TRUE,FALSE,0050v000001rVLYAA2,2019-04-03T22:33:22.000Z,USD,Portugal - Fox,aCj0v0000004CQsCAM,FALSE,No Specific Language,0050v000001rVLYAA2,2019-04-07T15:53:11.000Z,,,,,,0050v000001rVLYAA2,,Direct to Video;Feature;Movie of the Week,New Release,,Active,2019-04-07T15:53:11.000Z,,Initial Version,1
,,,TRUE,FALSE,0050v000001rVLYAA2,2019-04-03T22:33:22.000Z,USD,remove - inactive window,aCj0v0000004CQtCAM,FALSE,No Specific Language,0050v000001rVLYAA2,2019-04-07T15:53:11.000Z,,,,,,0050v000001rVLYAA2,,Direct to Video;Feature;Movie of the Week;Season,New Release,,Active,2019-04-07T15:53:11.000Z,,Initial Version,1
,,,TRUE,FALSE,0050v000001rVLYAA2,2019-04-03T22:33:22.000Z,USD,Russia - Fox,aCj0v0000004CQuCAM,FALSE,No Specific Language,0050v000001rVLYAA2,2019-04-07T15:53:11.000Z,,,,,,0050v000001rVLYAA2,,Direct to Video;Feature;Movie of the Week,New Release,,Active,2019-04-07T15:53:11.000Z,,Initial Version,1
,,,TRUE,FALSE,0050v000001rVLYAA2,2019-04-03T22:33:22.000Z,USD,Scandinavia - Fox,aCj0v0000004CQvCAM,FALSE,No Specific Language,0050v000001rVLYAA2,2019-04-07T15:53:11.000Z,,,,,,0050v000001rVLYAA2,,Direct to Video;Feature;Movie of the Week,New Release,,Active,2019-04-07T15:53:11.000Z,,Initial Version,1
,,,TRUE,FALSE,0050v000001rVLYAA2,2019-04-03T22:33:22.000Z,USD,SE Asia - Fox,aCj0v0000004CQwCAM,FALSE,No Specific Language,0050v000001rVLYAA2,2019-04-07T15:53:11.000Z,,,,,,0050v000001rVLYAA2,,Direct to Video;Feature;Movie of the Week,New Release,,Active,2019-04-07T15:53:11.000Z,,Initial Version,1
,,,TRUE,FALSE,0050v000001rVLYAA2,2019-04-03T22:33:22.000Z,USD,South Korea - Fox,aCj0v0000004CQxCAM,FALSE,No Specific Language,0050v000001rVLYAA2,2019-04-07T15:53:11.000Z,,,,,,0050v000001rVLYAA2,,Direct to Video;Feature;Movie of the Week,New Release,,Active,2019-04-07T15:53:11.000Z,,Initial Version,1
,,,TRUE,FALSE,0050v000001rVLYAA2,2019-04-03T22:33:22.000Z,USD,Spain - Fox,aCj0v0000004CQyCAM,FALSE,No Specific Language,0050v000001rVLYAA2,2019-04-07T15:53:11.000Z,,,,,,0050v000001rVLYAA2,,Direct to Video;Feature;Movie of the Week,New Release,,Active,2019-04-07T15:53:11.000Z,,Initial Version,1
,,,TRUE,FALSE,0050v000001rVLYAA2,2019-04-03T22:33:22.000Z,USD,Switzerland - Fox,aCj0v0000004CQzCAM,FALSE,No Specific Language,0050v000001rVLYAA2,2019-04-07T15:53:11.000Z,,,,,,0050v000001rVLYAA2,,Direct to Video;Feature;Movie of the Week,New Release,,Active,2019-04-07T15:53:11.000Z,,Initial Version,1
,,,TRUE,FALSE,0050v000001rVLYAA2,2019-04-03T22:33:22.000Z,USD,Taiwan - Fox,aCj0v0000004CR0CAM,FALSE,No Specific Language,0050v000001rVLYAA2,2019-04-07T15:53:11.000Z,,,,,,0050v000001rVLYAA2,,Direct to Video;Feature;Movie of the Week,New Release,,Active,2019-04-07T15:53:11.000Z,,Initial Version,1
,,,TRUE,FALSE,0050v000001rVLYAA2,2019-04-03T22:33:22.000Z,USD,Turkey - Fox,aCj0v0000004CR1CAM,FALSE,No Specific Language,0050v000001rVLYAA2,2019-04-07T15:53:11.000Z,,,,,,0050v000001rVLYAA2,,Direct to Video;Feature;Movie of the Week,New Release,,Active,2019-04-07T15:53:11.000Z,,Initial Version,1
,,,TRUE,FALSE,0050v000001rVLYAA2,2019-04-03T22:33:22.000Z,USD,United Kingdom - Fox,aCj0v0000004CR2CAM,FALSE,No Specific Language,0050v000001rVLYAA2,2019-04-07T15:53:11.000Z,,,,,,0050v000001rVLYAA2,,Direct to Video;Feature;Movie of the Week,New Release,,Active,2019-04-07T15:53:11.000Z,,Initial Version,1
,,,TRUE,FALSE,0050v000001rVLYAA2,2019-04-03T22:33:22.000Z,USD,United States - Fox - Features,aCj0v0000004CR4CAM,FALSE,No Specific Language,0050v000001rVLYAA2,2019-04-07T15:53:11.000Z,,,,,,0050v000001rVLYAA2,,Feature,New Release,,Active,2019-04-07T15:53:11.000Z,,Initial Version,1
