ID,ISDELETED,NAME,CURRENCYISOCODE,SETUPOWNERID,CREATEDDATE,CREATEDBYID,LASTMODIFIEDDATE,LASTMODIFIEDBYID,SYSTEMMODSTAMP,GALILEO_TERRITORY_NAME__C,NAME__C,TERRITORY_CODE__C,TERRITORY_ID__C
aDD170000008OQ1GAM,FALSE,"Korea, South",USD,00D1700000054ZdEAI,2019-06-26T01:30:50.000Z,00517000002tsmjAAA,2019-06-26T01:30:50.000Z,00517000002tsmjAAA,2019-06-26T01:30:50.000Z,"Korea, South","Korea, South",KR,428
aDD170000008OQ2GAM,FALSE,Kuwait,USD,00D1700000054ZdEAI,2019-06-26T01:30:50.000Z,00517000002tsmjAAA,2019-06-26T01:30:50.000Z,00517000002tsmjAAA,2019-06-26T01:30:50.000Z,Kuwait,Kuwait,KW,241
aDD170000008OQ3GAM,FALSE,Malawi,USD,00D1700000054ZdEAI,2019-06-26T01:30:50.000Z,00517000002tsmjAAA,2019-06-26T01:30:50.000Z,00517000002tsmjAAA,2019-06-26T01:30:50.000Z,Malawi,Malawi,MW,271
aDD170000008OQ4GAM,FALSE,Malaysia,USD,00D1700000054ZdEAI,2019-06-26T01:30:50.000Z,00517000002tsmjAAA,2019-06-26T01:30:50.000Z,00517000002tsmjAAA,2019-06-26T01:30:50.000Z,Malaysia,Malaysia,MY,270
aDD170000008OQ5GAM,FALSE,Equatorial Guinea,USD,00D1700000054ZdEAI,2019-06-26T01:30:50.000Z,00517000002tsmjAAA,2019-06-26T01:30:50.000Z,00517000002tsmjAAA,2019-06-26T01:30:50.000Z,Equatorial Guinea,Equatorial Guinea,GQ,154
aDD170000008OQ6GAM,FALSE,Canada - Alberta,USD,00D1700000054ZdEAI,2019-06-26T01:30:50.000Z,00517000002tsmjAAA,2019-06-26T01:30:50.000Z,00517000002tsmjAAA,2019-06-26T01:30:50.000Z,Canada - Alberta,Canada - Alberta,,8
aDD170000008OQ7GAM,FALSE,Saint Lucia,USD,00D1700000054ZdEAI,2019-06-26T01:30:50.000Z,00517000002tsmjAAA,2019-06-26T01:30:50.000Z,00517000002tsmjAAA,2019-06-26T01:30:50.000Z,Saint Lucia,Saint Lucia,LC,448
aDD170000008OQ8GAM,FALSE,Cape Verde,USD,00D1700000054ZdEAI,2019-06-26T01:30:50.000Z,00517000002tsmjAAA,2019-06-26T01:30:50.000Z,00517000002tsmjAAA,2019-06-26T01:30:50.000Z,Cape Verde,Cape Verde,CV,95
aDD170000008OQ9GAM,FALSE,Canada - British Columbia,USD,00D1700000054ZdEAI,2019-06-26T01:30:50.000Z,00517000002tsmjAAA,2019-06-26T01:30:50.000Z,00517000002tsmjAAA,2019-06-26T01:30:50.000Z,Canada - British Columbia,Canada - British Columbia,,72
aDD170000008OQAGA2,FALSE,Central African Republic,USD,00D1700000054ZdEAI,2019-06-26T01:30:50.000Z,00517000002tsmjAAA,2019-06-26T01:30:50.000Z,00517000002tsmjAAA,2019-06-26T01:30:50.000Z,Central African Republic,Central African Republic,CF,102
aDD170000008OQLGA2,FALSE,Samoa,USD,00D1700000054ZdEAI,2019-06-26T01:30:50.000Z,00517000002tsmjAAA,2019-06-26T01:30:50.000Z,00517000002tsmjAAA,2019-06-26T01:30:50.000Z,Samoa,Samoa,WS,536
aDD170000008OQdGAM,FALSE,Mexico,USD,00D1700000054ZdEAI,2019-06-26T01:30:50.000Z,00517000002tsmjAAA,2019-06-26T01:30:50.000Z,00517000002tsmjAAA,2019-06-26T01:30:50.000Z,Mexico,Mexico,MX,292
aDD170000008OQeGAM,FALSE,Canada - Nunavut,USD,00D1700000054ZdEAI,2019-06-26T01:30:50.000Z,00517000002tsmjAAA,2019-06-26T01:30:50.000Z,00517000002tsmjAAA,2019-06-26T01:30:50.000Z,Canada - Nunavut,Canada - Nunavut,,633
aDD170000008OQfGAM,FALSE,Canada - Ontario,USD,00D1700000054ZdEAI,2019-06-26T01:30:50.000Z,00517000002tsmjAAA,2019-06-26T01:30:50.000Z,00517000002tsmjAAA,2019-06-26T01:30:50.000Z,Canada - Ontario,Canada - Ontario,,350
aDD170000008OQgGAM,FALSE,Canada - Prince Edward Island,USD,00D1700000054ZdEAI,2019-06-26T01:30:50.000Z,00517000002tsmjAAA,2019-06-26T01:30:50.000Z,00517000002tsmjAAA,2019-06-26T01:30:50.000Z,Canada - Prince Edward Island,Canada - Prince Edward Island,,359
aDD170000008OQhGAM,FALSE,Sri Lanka,USD,00D1700000054ZdEAI,2019-06-26T01:30:50.000Z,00517000002tsmjAAA,2019-06-26T01:30:50.000Z,00517000002tsmjAAA,2019-06-26T01:30:50.000Z,Sri Lanka,Sri Lanka,LK,437
aDD170000008OROGA2,FALSE,Canada,USD,00D1700000054ZdEAI,2019-06-26T01:30:50.000Z,00517000002tsmjAAA,2019-06-26T01:30:50.000Z,00517000002tsmjAAA,2019-06-26T01:30:50.000Z,Canada,Canada,CA,92
aDD170000008ORPGA2,FALSE,Cayman Islands,USD,00D1700000054ZdEAI,2019-06-26T01:30:50.000Z,00517000002tsmjAAA,2019-06-26T01:30:50.000Z,00517000002tsmjAAA,2019-06-26T01:30:50.000Z,Cayman Islands,Cayman Islands,KY,99
aDD170000008ORQGA2,FALSE,United States Armed Forces,USD,00D1700000054ZdEAI,2019-06-26T01:30:50.000Z,00517000002tsmjAAA,2019-06-26T01:30:50.000Z,00517000002tsmjAAA,2019-06-26T01:30:50.000Z,United States Armed Forces,United States Armed Forces,,510
aDD170000008ORRGA2,FALSE,Comoros,USD,00D1700000054ZdEAI,2019-06-26T01:30:50.000Z,00517000002tsmjAAA,2019-06-26T01:30:50.000Z,00517000002tsmjAAA,2019-06-26T01:30:50.000Z,Comoros,Comoros,KM,114
aDD170000008ORSGA2,FALSE,Montserrat,USD,00D1700000054ZdEAI,2019-06-26T01:30:50.000Z,00517000002tsmjAAA,2019-06-26T01:30:50.000Z,00517000002tsmjAAA,2019-06-26T01:30:50.000Z,Montserrat,Montserrat,MS,305
aDD170000008ORTGA2,FALSE,Morocco,USD,00D1700000054ZdEAI,2019-06-26T01:30:50.000Z,00517000002tsmjAAA,2019-06-26T01:30:50.000Z,00517000002tsmjAAA,2019-06-26T01:30:50.000Z,Morocco,Morocco,MA,306
aDD170000008ORUGA2,FALSE,Mozambique,USD,00D1700000054ZdEAI,2019-06-26T01:30:50.000Z,00517000002tsmjAAA,2019-06-26T01:30:50.000Z,00517000002tsmjAAA,2019-06-26T01:30:50.000Z,Mozambique,Mozambique,MZ,307
aDD170000008ORVGA2,FALSE,Reunion,USD,00D1700000054ZdEAI,2019-06-26T01:30:50.000Z,00517000002tsmjAAA,2019-06-26T01:30:50.000Z,00517000002tsmjAAA,2019-06-26T01:30:50.000Z,Reunion,Reunion,RE,245
aDD170000008ORWGA2,FALSE,Romania,USD,00D1700000054ZdEAI,2019-06-26T01:30:50.000Z,00517000002tsmjAAA,2019-06-26T01:30:50.000Z,00517000002tsmjAAA,2019-06-26T01:30:50.000Z,Romania,Romania,RO,388
aDD170000008ORXGA2,FALSE,Russia,USD,00D1700000054ZdEAI,2019-06-26T01:30:50.000Z,00517000002tsmjAAA,2019-06-26T01:30:50.000Z,00517000002tsmjAAA,2019-06-26T01:30:50.000Z,Russia,Russia,RU,390
aDD170000008OUfGAM,FALSE,Marshall Islands,USD,00D1700000054ZdEAI,2019-06-26T01:30:52.000Z,00517000002tsmjAAA,2019-06-26T01:30:52.000Z,00517000002tsmjAAA,2019-06-26T01:30:52.000Z,Marshall Islands,Marshall Islands,MH,279
aDD170000008OUgGAM,FALSE,Oman,USD,00D1700000054ZdEAI,2019-06-26T01:30:52.000Z,00517000002tsmjAAA,2019-06-26T01:30:52.000Z,00517000002tsmjAAA,2019-06-26T01:30:52.000Z,Oman,Oman,OM,349
aDD170000008OUhGAM,FALSE,Pakistan,USD,00D1700000054ZdEAI,2019-06-26T01:30:52.000Z,00517000002tsmjAAA,2019-06-26T01:30:52.000Z,00517000002tsmjAAA,2019-06-26T01:30:52.000Z,Pakistan,Pakistan,PK,354
aDD170000008OUiGAM,FALSE,United Arab Emirates,USD,00D1700000054ZdEAI,2019-06-26T01:30:52.000Z,00517000002tsmjAAA,2019-06-26T01:30:52.000Z,00517000002tsmjAAA,2019-06-26T01:30:52.000Z,United Arab Emirates,United Arab Emirates,AE,501
aDD170000008OUjGAM,FALSE,Panama,USD,00D1700000054ZdEAI,2019-06-26T01:30:52.000Z,00517000002tsmjAAA,2019-06-26T01:30:52.000Z,00517000002tsmjAAA,2019-06-26T01:30:52.000Z,Panama,Panama,PA,355
aDD170000008OUkGAM,FALSE,Papua New Guinea,USD,00D1700000054ZdEAI,2019-06-26T01:30:52.000Z,00517000002tsmjAAA,2019-06-26T01:30:52.000Z,00517000002tsmjAAA,2019-06-26T01:30:52.000Z,Papua New Guinea,Papua New Guinea,PG,357
aDD170000008OUlGAM,FALSE,Kazakhstan,USD,00D1700000054ZdEAI,2019-06-26T01:30:52.000Z,00517000002tsmjAAA,2019-06-26T01:30:52.000Z,00517000002tsmjAAA,2019-06-26T01:30:52.000Z,Kazakhstan,Kazakhstan,KZ,233
aDD170000008OUmGAM,FALSE,Kenya,USD,00D1700000054ZdEAI,2019-06-26T01:30:52.000Z,00517000002tsmjAAA,2019-06-26T01:30:52.000Z,00517000002tsmjAAA,2019-06-26T01:30:52.000Z,Kenya,Kenya,KE,235
aDD170000008OUnGAM,FALSE,United States,USD,00D1700000054ZdEAI,2019-06-26T01:30:52.000Z,00517000002tsmjAAA,2019-06-26T01:30:52.000Z,00517000002tsmjAAA,2019-06-26T01:30:52.000Z,United States,United States,US,509
aDD170000008OUoGAM,FALSE,Liechtenstein,USD,00D1700000054ZdEAI,2019-06-26T01:30:52.000Z,00517000002tsmjAAA,2019-06-26T01:30:52.000Z,00517000002tsmjAAA,2019-06-26T01:30:52.000Z,Liechtenstein,Liechtenstein,LI,256
aDD170000008ORYGA2,FALSE,Rwanda,USD,00D1700000054ZdEAI,2019-06-26T01:30:50.000Z,00517000002tsmjAAA,2019-06-26T01:30:50.000Z,00517000002tsmjAAA,2019-06-26T01:30:50.000Z,Rwanda,Rwanda,RW,391
aDD170000008ORZGA2,FALSE,Saba,USD,00D1700000054ZdEAI,2019-06-26T01:30:50.000Z,00517000002tsmjAAA,2019-06-26T01:30:50.000Z,00517000002tsmjAAA,2019-06-26T01:30:50.000Z,Saba,Saba,,393
aDD170000008ORaGAM,FALSE,Saint Eustatius,USD,00D1700000054ZdEAI,2019-06-26T01:30:50.000Z,00517000002tsmjAAA,2019-06-26T01:30:50.000Z,00517000002tsmjAAA,2019-06-26T01:30:50.000Z,Sint Eustatius,Saint Eustatius,,442
aDD170000008ORbGAM,FALSE,Cuba,USD,00D1700000054ZdEAI,2019-06-26T01:30:50.000Z,00517000002tsmjAAA,2019-06-26T01:30:50.000Z,00517000002tsmjAAA,2019-06-26T01:30:50.000Z,Cuba,Cuba,CU,125
aDD170000008ORcGAM,FALSE,Curacao,USD,00D1700000054ZdEAI,2019-06-26T01:30:50.000Z,00517000002tsmjAAA,2019-06-26T01:30:50.000Z,00517000002tsmjAAA,2019-06-26T01:30:50.000Z,Curacao,Curacao,CW,127
aDD170000008ORdGAM,FALSE,Cyprus,USD,00D1700000054ZdEAI,2019-06-26T01:30:50.000Z,00517000002tsmjAAA,2019-06-26T01:30:50.000Z,00517000002tsmjAAA,2019-06-26T01:30:50.000Z,Cyprus,Cyprus,CY,129
aDD170000008OReGAM,FALSE,Guyana,USD,00D1700000054ZdEAI,2019-06-26T01:30:50.000Z,00517000002tsmjAAA,2019-06-26T01:30:50.000Z,00517000002tsmjAAA,2019-06-26T01:30:50.000Z,Guyana,Guyana,GY,199
aDD170000008ORfGAM,FALSE,Haiti,USD,00D1700000054ZdEAI,2019-06-26T01:30:50.000Z,00517000002tsmjAAA,2019-06-26T01:30:50.000Z,00517000002tsmjAAA,2019-06-26T01:30:50.000Z,Haiti,Haiti,HT,200
aDD170000008ORgGAM,FALSE,Honduras,USD,00D1700000054ZdEAI,2019-06-26T01:30:50.000Z,00517000002tsmjAAA,2019-06-26T01:30:50.000Z,00517000002tsmjAAA,2019-06-26T01:30:50.000Z,Honduras,Honduras,HN,208
aDD170000008ORhGAM,FALSE,Hong Kong,USD,00D1700000054ZdEAI,2019-06-26T01:30:50.000Z,00517000002tsmjAAA,2019-06-26T01:30:50.000Z,00517000002tsmjAAA,2019-06-26T01:30:50.000Z,Hong Kong,Hong Kong,HK,209
aDD170000008ORsGAM,FALSE,Iraq,USD,00D1700000054ZdEAI,2019-06-26T01:30:50.000Z,00517000002tsmjAAA,2019-06-26T01:30:50.000Z,00517000002tsmjAAA,2019-06-26T01:30:50.000Z,Iraq,Iraq,IQ,217
aDD170000008ORtGAM,FALSE,Ireland,USD,00D1700000054ZdEAI,2019-06-26T01:30:50.000Z,00517000002tsmjAAA,2019-06-26T01:30:50.000Z,00517000002tsmjAAA,2019-06-26T01:30:50.000Z,Ireland,Ireland,IE,218
aDD170000008ORuGAM,FALSE,Nepal,USD,00D1700000054ZdEAI,2019-06-26T01:30:50.000Z,00517000002tsmjAAA,2019-06-26T01:30:50.000Z,00517000002tsmjAAA,2019-06-26T01:30:50.000Z,Nepal,Nepal,NP,323
aDD170000008ORvGAM,FALSE,Netherlands,USD,00D1700000054ZdEAI,2019-06-26T01:30:50.000Z,00517000002tsmjAAA,2019-06-26T01:30:50.000Z,00517000002tsmjAAA,2019-06-26T01:30:50.000Z,Netherlands,Netherlands,NL,324
aDD170000008ORwGAM,FALSE,Nevis,USD,00D1700000054ZdEAI,2019-06-26T01:30:50.000Z,00517000002tsmjAAA,2019-06-26T01:30:50.000Z,00517000002tsmjAAA,2019-06-26T01:30:50.000Z,Nevis,Nevis,,325
aDD170000008OS7GAM,FALSE,Nigeria,USD,00D1700000054ZdEAI,2019-06-26T01:30:50.000Z,00517000002tsmjAAA,2019-06-26T01:30:50.000Z,00517000002tsmjAAA,2019-06-26T01:30:50.000Z,Nigeria,Nigeria,NG,330
aDD170000008OS8GAM,FALSE,Niue,USD,00D1700000054ZdEAI,2019-06-26T01:30:50.000Z,00517000002tsmjAAA,2019-06-26T01:30:50.000Z,00517000002tsmjAAA,2019-06-26T01:30:50.000Z,Niue,Niue,NU,333
aDD170000008OS9GAM,FALSE,Northern Mariana Islands,USD,00D1700000054ZdEAI,2019-06-26T01:30:50.000Z,00517000002tsmjAAA,2019-06-26T01:30:50.000Z,00517000002tsmjAAA,2019-06-26T01:30:50.000Z,Northern Mariana Islands,Northern Mariana Islands,MP,335
aDD170000008OSAGA2,FALSE,Norway,USD,00D1700000054ZdEAI,2019-06-26T01:30:50.000Z,00517000002tsmjAAA,2019-06-26T01:30:50.000Z,00517000002tsmjAAA,2019-06-26T01:30:50.000Z,Norway,Norway,NO,340
aDD170000008OSiGAM,FALSE,Azerbaijan,USD,00D1700000054ZdEAI,2019-06-26T01:30:50.000Z,00517000002tsmjAAA,2019-06-26T01:30:50.000Z,00517000002tsmjAAA,2019-06-26T01:30:50.000Z,Azerbaijan,Azerbaijan,AZ,34
aDD170000008OSjGAM,FALSE,Indonesia,USD,00D1700000054ZdEAI,2019-06-26T01:30:50.000Z,00517000002tsmjAAA,2019-06-26T01:30:50.000Z,00517000002tsmjAAA,2019-06-26T01:30:50.000Z,Indonesia,Indonesia,ID,214
aDD170000008OSkGAM,FALSE,Bahrain,USD,00D1700000054ZdEAI,2019-06-26T01:30:50.000Z,00517000002tsmjAAA,2019-06-26T01:30:50.000Z,00517000002tsmjAAA,2019-06-26T01:30:50.000Z,Bahrain,Bahrain,BH,37
aDD170000008OSlGAM,FALSE,Bangladesh,USD,00D1700000054ZdEAI,2019-06-26T01:30:50.000Z,00517000002tsmjAAA,2019-06-26T01:30:50.000Z,00517000002tsmjAAA,2019-06-26T01:30:50.000Z,Bangladesh,Bangladesh,BD,41
aDD170000008OSmGAM,FALSE,Barbados,USD,00D1700000054ZdEAI,2019-06-26T01:30:50.000Z,00517000002tsmjAAA,2019-06-26T01:30:50.000Z,00517000002tsmjAAA,2019-06-26T01:30:50.000Z,Barbados,Barbados,BB,42
aDD170000008OSnGAM,FALSE,Djibouti (Afars and Issas),USD,00D1700000054ZdEAI,2019-06-26T01:30:50.000Z,00517000002tsmjAAA,2019-06-26T01:30:50.000Z,00517000002tsmjAAA,2019-06-26T01:30:50.000Z,Djibouti,Djibouti (Afars and Issas),DJ,136
aDD170000008OSoGAM,FALSE,Dominica,USD,00D1700000054ZdEAI,2019-06-26T01:30:50.000Z,00517000002tsmjAAA,2019-06-26T01:30:50.000Z,00517000002tsmjAAA,2019-06-26T01:30:50.000Z,Dominica,Dominica,DM,140
aDD170000008OSpGAM,FALSE,Dominican Republic,USD,00D1700000054ZdEAI,2019-06-26T01:30:50.000Z,00517000002tsmjAAA,2019-06-26T01:30:50.000Z,00517000002tsmjAAA,2019-06-26T01:30:50.000Z,Dominican Republic,Dominican Republic,DO,139
aDD170000008OSqGAM,FALSE,Uruguay,USD,00D1700000054ZdEAI,2019-06-26T01:30:50.000Z,00517000002tsmjAAA,2019-06-26T01:30:50.000Z,00517000002tsmjAAA,2019-06-26T01:30:50.000Z,Uruguay,Uruguay,UY,508
aDD170000008OSrGAM,FALSE,Uzbekistan,USD,00D1700000054ZdEAI,2019-06-26T01:30:50.000Z,00517000002tsmjAAA,2019-06-26T01:30:50.000Z,00517000002tsmjAAA,2019-06-26T01:30:50.000Z,Uzbekistan,Uzbekistan,UZ,512
aDD170000008OSzGAM,FALSE,Zambia,USD,00D1700000054ZdEAI,2019-06-26T01:30:50.000Z,00517000002tsmjAAA,2019-06-26T01:30:50.000Z,00517000002tsmjAAA,2019-06-26T01:30:50.000Z,Zambia,Zambia,ZM,544
aDD170000008OT0GAM,FALSE,Ghana,USD,00D1700000054ZdEAI,2019-06-26T01:30:50.000Z,00517000002tsmjAAA,2019-06-26T01:30:50.000Z,00517000002tsmjAAA,2019-06-26T01:30:50.000Z,Ghana,Ghana,GH,183
aDD170000008OT1GAM,FALSE,Gibraltar,USD,00D1700000054ZdEAI,2019-06-26T01:30:50.000Z,00517000002tsmjAAA,2019-06-26T01:30:50.000Z,00517000002tsmjAAA,2019-06-26T01:30:50.000Z,Gibraltar,Gibraltar,GI,184
aDD170000008OT2GAM,FALSE,Greece,USD,00D1700000054ZdEAI,2019-06-26T01:30:50.000Z,00517000002tsmjAAA,2019-06-26T01:30:50.000Z,00517000002tsmjAAA,2019-06-26T01:30:50.000Z,Greece,Greece,GR,188
aDD170000008OUpGAM,FALSE,Lithuania,USD,00D1700000054ZdEAI,2019-06-26T01:30:52.000Z,00517000002tsmjAAA,2019-06-26T01:30:52.000Z,00517000002tsmjAAA,2019-06-26T01:30:52.000Z,Lithuania,Lithuania,LT,259
aDD170000008OUqGAM,FALSE,Luxembourg,USD,00D1700000054ZdEAI,2019-06-26T01:30:52.000Z,00517000002tsmjAAA,2019-06-26T01:30:52.000Z,00517000002tsmjAAA,2019-06-26T01:30:52.000Z,Luxembourg,Luxembourg,LU,265
aDD170000008OUrGAM,FALSE,Macau,USD,00D1700000054ZdEAI,2019-06-26T01:30:52.000Z,00517000002tsmjAAA,2019-06-26T01:30:52.000Z,00517000002tsmjAAA,2019-06-26T01:30:52.000Z,Macau,Macau,MO,266
aDD170000008OUsGAM,FALSE,Madagascar,USD,00D1700000054ZdEAI,2019-06-26T01:30:52.000Z,00517000002tsmjAAA,2019-06-26T01:30:52.000Z,00517000002tsmjAAA,2019-06-26T01:30:52.000Z,Madagascar,Madagascar,MG,269
aDD170000008OUtGAM,FALSE,Bosnia and Herzegovina,USD,00D1700000054ZdEAI,2019-06-26T01:30:52.000Z,00517000002tsmjAAA,2019-06-26T01:30:52.000Z,00517000002tsmjAAA,2019-06-26T01:30:52.000Z,Bosnia and Herzegovina,Bosnia and Herzegovina,BA,66
aDD170000008OUuGAM,FALSE,United States Virgin Islands,USD,00D1700000054ZdEAI,2019-06-26T01:30:52.000Z,00517000002tsmjAAA,2019-06-26T01:30:52.000Z,00517000002tsmjAAA,2019-06-26T01:30:52.000Z,United States Virgin Islands,United States Virgin Islands,VI,511
aDD170000008OUvGAM,FALSE,MacedoniaTheFormerYugoslavRepublicOf,USD,00D1700000054ZdEAI,2019-06-26T01:44:17.000Z,00517000002tsmjAAA,2019-06-26T01:44:17.000Z,00517000002tsmjAAA,2019-06-26T01:44:17.000Z,"Macedonia, The Former Yugoslav Republic Of","Macedonia, The Former Yugoslav Republic Of",,267
aDD170000008OQBGA2,FALSE,Guam,USD,00D1700000054ZdEAI,2019-06-26T01:30:50.000Z,00517000002tsmjAAA,2019-06-26T01:30:50.000Z,00517000002tsmjAAA,2019-06-26T01:30:50.000Z,Guam,Guam,GU,194
aDD170000008OQCGA2,FALSE,Guatemala,USD,00D1700000054ZdEAI,2019-06-26T01:30:50.000Z,00517000002tsmjAAA,2019-06-26T01:30:50.000Z,00517000002tsmjAAA,2019-06-26T01:30:50.000Z,Guatemala,Guatemala,GT,196
aDD170000008OQDGA2,FALSE,Guinea,USD,00D1700000054ZdEAI,2019-06-26T01:30:50.000Z,00517000002tsmjAAA,2019-06-26T01:30:50.000Z,00517000002tsmjAAA,2019-06-26T01:30:50.000Z,Guinea,Guinea,GN,198
aDD170000008OQEGA2,FALSE,Guinea-Bissau,USD,00D1700000054ZdEAI,2019-06-26T01:30:50.000Z,00517000002tsmjAAA,2019-06-26T01:30:50.000Z,00517000002tsmjAAA,2019-06-26T01:30:50.000Z,Guinea-Bissau,Guinea-Bissau,GW,180
aDD170000008OQFGA2,FALSE,Martinique,USD,00D1700000054ZdEAI,2019-06-26T01:30:50.000Z,00517000002tsmjAAA,2019-06-26T01:30:50.000Z,00517000002tsmjAAA,2019-06-26T01:30:50.000Z,Martinique,Martinique,MQ,280
aDD170000008OQGGA2,FALSE,Mauritania,USD,00D1700000054ZdEAI,2019-06-26T01:30:50.000Z,00517000002tsmjAAA,2019-06-26T01:30:50.000Z,00517000002tsmjAAA,2019-06-26T01:30:50.000Z,Mauritania,Mauritania,MR,283
aDD170000008OQHGA2,FALSE,Mauritius,USD,00D1700000054ZdEAI,2019-06-26T01:30:50.000Z,00517000002tsmjAAA,2019-06-26T01:30:50.000Z,00517000002tsmjAAA,2019-06-26T01:30:50.000Z,Mauritius,Mauritius,MU,284
aDD170000008OQIGA2,FALSE,Saint Maarten,USD,00D1700000054ZdEAI,2019-06-26T01:30:50.000Z,00517000002tsmjAAA,2019-06-26T01:30:50.000Z,00517000002tsmjAAA,2019-06-26T01:30:50.000Z,Sint Maarten,Saint Maarten,,449
aDD170000008OQJGA2,FALSE,Saint Pierre,USD,00D1700000054ZdEAI,2019-06-26T01:30:50.000Z,00517000002tsmjAAA,2019-06-26T01:30:50.000Z,00517000002tsmjAAA,2019-06-26T01:30:50.000Z,Saint Pierre,Saint Pierre,,451
aDD170000008OQKGA2,FALSE,Saint Vincent,USD,00D1700000054ZdEAI,2019-06-26T01:30:50.000Z,00517000002tsmjAAA,2019-06-26T01:30:50.000Z,00517000002tsmjAAA,2019-06-26T01:30:50.000Z,Saint Vincent,Saint Vincent,,453
aDD170000008OQMGA2,FALSE,San Marino,USD,00D1700000054ZdEAI,2019-06-26T01:30:50.000Z,00517000002tsmjAAA,2019-06-26T01:30:50.000Z,00517000002tsmjAAA,2019-06-26T01:30:50.000Z,San Marino,San Marino,SM,399
aDD170000008OQNGA2,FALSE,Sao Tome,USD,00D1700000054ZdEAI,2019-06-26T01:30:50.000Z,00517000002tsmjAAA,2019-06-26T01:30:50.000Z,00517000002tsmjAAA,2019-06-26T01:30:50.000Z,Sao Tome,Sao Tome,,402
aDD170000008OQOGA2,FALSE,Saudi Arabia,USD,00D1700000054ZdEAI,2019-06-26T01:30:50.000Z,00517000002tsmjAAA,2019-06-26T01:30:50.000Z,00517000002tsmjAAA,2019-06-26T01:30:50.000Z,Saudi Arabia,Saudi Arabia,SA,408
aDD170000008OQPGA2,FALSE,Senegal,USD,00D1700000054ZdEAI,2019-06-26T01:30:50.000Z,00517000002tsmjAAA,2019-06-26T01:30:50.000Z,00517000002tsmjAAA,2019-06-26T01:30:50.000Z,Senegal,Senegal,SN,415
aDD170000008OQQGA2,FALSE,Serbia,USD,00D1700000054ZdEAI,2019-06-26T01:30:50.000Z,00517000002tsmjAAA,2019-06-26T01:30:50.000Z,00517000002tsmjAAA,2019-06-26T01:30:50.000Z,Serbia,Serbia,RS,599
aDD170000008OQRGA2,FALSE,Seychelles,USD,00D1700000054ZdEAI,2019-06-26T01:30:50.000Z,00517000002tsmjAAA,2019-06-26T01:30:50.000Z,00517000002tsmjAAA,2019-06-26T01:30:50.000Z,Seychelles,Seychelles,SC,418
aDD170000008OQSGA2,FALSE,Sierra Leone,USD,00D1700000054ZdEAI,2019-06-26T01:30:50.000Z,00517000002tsmjAAA,2019-06-26T01:30:50.000Z,00517000002tsmjAAA,2019-06-26T01:30:50.000Z,Sierra Leone,Sierra Leone,SL,426
aDD170000008OQTGA2,FALSE,Singapore,USD,00D1700000054ZdEAI,2019-06-26T01:30:50.000Z,00517000002tsmjAAA,2019-06-26T01:30:50.000Z,00517000002tsmjAAA,2019-06-26T01:30:50.000Z,Singapore,Singapore,SG,427
aDD170000008OQUGA2,FALSE,Slovak Republic (Slovakia),USD,00D1700000054ZdEAI,2019-06-26T01:30:50.000Z,00517000002tsmjAAA,2019-06-26T01:30:50.000Z,00517000002tsmjAAA,2019-06-26T01:30:50.000Z,Slovak Republic (Slovakia),Slovak Republic (Slovakia),SK,429
aDD170000008OQVGA2,FALSE,Canada - Manitoba,USD,00D1700000054ZdEAI,2019-06-26T01:30:50.000Z,00517000002tsmjAAA,2019-06-26T01:30:50.000Z,00517000002tsmjAAA,2019-06-26T01:30:50.000Z,Canada - Manitoba,Canada - Manitoba,,276
aDD170000008OUJGA2,FALSE,"Micronesia, Federated States Of",USD,00D1700000054ZdEAI,2019-06-26T01:30:52.000Z,00517000002tsmjAAA,2019-06-26T01:30:52.000Z,00517000002tsmjAAA,2019-06-26T01:30:52.000Z,"Micronesia, Federated States Of","Micronesia, Federated States Of",FM,612
aDD170000008OUKGA2,FALSE,Palau,USD,00D1700000054ZdEAI,2019-06-26T01:30:52.000Z,00517000002tsmjAAA,2019-06-26T01:30:52.000Z,00517000002tsmjAAA,2019-06-26T01:30:52.000Z,United States - Palau,Palau,PW,611
aDD170000008OULGA2,FALSE,Slovenia,USD,00D1700000054ZdEAI,2019-06-26T01:30:52.000Z,00517000002tsmjAAA,2019-06-26T01:30:52.000Z,00517000002tsmjAAA,2019-06-26T01:30:52.000Z,Slovenia,Slovenia,SI,430
aDD170000008OUMGA2,FALSE,South Georgia Islands,USD,00D1700000054ZdEAI,2019-06-26T01:30:52.000Z,00517000002tsmjAAA,2019-06-26T01:30:52.000Z,00517000002tsmjAAA,2019-06-26T01:30:52.000Z,Falkland Islands (Malvinas) - South Georgia Islands,South Georgia Islands,,419
aDD170000008OUNGA2,FALSE,South Sandwich Islands,USD,00D1700000054ZdEAI,2019-06-26T01:30:52.000Z,00517000002tsmjAAA,2019-06-26T01:30:52.000Z,00517000002tsmjAAA,2019-06-26T01:30:52.000Z,Falkland Islands (Malvinas) - South Sandwich Islands,South Sandwich Islands,,438
aDD170000008OUOGA2,FALSE,Spain - Basque Region,USD,00D1700000054ZdEAI,2019-06-26T01:30:52.000Z,00517000002tsmjAAA,2019-06-26T01:30:52.000Z,00517000002tsmjAAA,2019-06-26T01:30:52.000Z,Spain - Basque Region,Spain - Basque Region,,46
aDD170000008OUPGA2,FALSE,Spain - Canary Islands,USD,00D1700000054ZdEAI,2019-06-26T01:30:52.000Z,00517000002tsmjAAA,2019-06-26T01:30:52.000Z,00517000002tsmjAAA,2019-06-26T01:30:52.000Z,Spain - Canary Islands,Spain - Canary Islands,,93
aDD170000008OUQGA2,FALSE,Spain,USD,00D1700000054ZdEAI,2019-06-26T01:30:52.000Z,00517000002tsmjAAA,2019-06-26T01:30:52.000Z,00517000002tsmjAAA,2019-06-26T01:30:52.000Z,Spain,Spain,ES,436
aDD170000008OURGA2,FALSE,Belize,USD,00D1700000054ZdEAI,2019-06-26T01:30:52.000Z,00517000002tsmjAAA,2019-06-26T01:30:52.000Z,00517000002tsmjAAA,2019-06-26T01:30:52.000Z,Belize,Belize,BZ,50
aDD170000008OUSGA2,FALSE,Benin (Dahomey),USD,00D1700000054ZdEAI,2019-06-26T01:30:52.000Z,00517000002tsmjAAA,2019-06-26T01:30:52.000Z,00517000002tsmjAAA,2019-06-26T01:30:52.000Z,Benin,Benin (Dahomey),BJ,54
aDD170000008OUTGA2,FALSE,Bermuda,USD,00D1700000054ZdEAI,2019-06-26T01:30:52.000Z,00517000002tsmjAAA,2019-06-26T01:30:52.000Z,00517000002tsmjAAA,2019-06-26T01:30:52.000Z,Bermuda,Bermuda,BM,55
aDD170000008OUUGA2,FALSE,Bhutan,USD,00D1700000054ZdEAI,2019-06-26T01:30:52.000Z,00517000002tsmjAAA,2019-06-26T01:30:52.000Z,00517000002tsmjAAA,2019-06-26T01:30:52.000Z,Bhutan,Bhutan,BT,57
aDD170000008OUVGA2,FALSE,Bolivia,USD,00D1700000054ZdEAI,2019-06-26T01:30:52.000Z,00517000002tsmjAAA,2019-06-26T01:30:52.000Z,00517000002tsmjAAA,2019-06-26T01:30:52.000Z,Bolivia,Bolivia,BO,60
aDD170000008OUWGA2,FALSE,Bonaire,USD,00D1700000054ZdEAI,2019-06-26T01:30:52.000Z,00517000002tsmjAAA,2019-06-26T01:30:52.000Z,00517000002tsmjAAA,2019-06-26T01:30:52.000Z,Bonaire,Bonaire,,61
aDD170000008OUXGA2,FALSE,Ecuador,USD,00D1700000054ZdEAI,2019-06-26T01:30:52.000Z,00517000002tsmjAAA,2019-06-26T01:30:52.000Z,00517000002tsmjAAA,2019-06-26T01:30:52.000Z,Ecuador,Ecuador,EC,145
aDD170000008OUYGA2,FALSE,Egypt,USD,00D1700000054ZdEAI,2019-06-26T01:30:52.000Z,00517000002tsmjAAA,2019-06-26T01:30:52.000Z,00517000002tsmjAAA,2019-06-26T01:30:52.000Z,Egypt,Egypt,EG,149
aDD170000008OUZGA2,FALSE,El Salvador,USD,00D1700000054ZdEAI,2019-06-26T01:30:52.000Z,00517000002tsmjAAA,2019-06-26T01:30:52.000Z,00517000002tsmjAAA,2019-06-26T01:30:52.000Z,El Salvador,El Salvador,SV,151
aDD170000008OUaGAM,FALSE,Jordan,USD,00D1700000054ZdEAI,2019-06-26T01:30:52.000Z,00517000002tsmjAAA,2019-06-26T01:30:52.000Z,00517000002tsmjAAA,2019-06-26T01:30:52.000Z,Jordan,Jordan,JO,228
aDD170000008OUbGAM,FALSE,Grenada,USD,00D1700000054ZdEAI,2019-06-26T01:30:52.000Z,00517000002tsmjAAA,2019-06-26T01:30:52.000Z,00517000002tsmjAAA,2019-06-26T01:30:52.000Z,Grenada,Grenada,GD,190
aDD170000008OUcGAM,FALSE,Grenadines,USD,00D1700000054ZdEAI,2019-06-26T01:30:52.000Z,00517000002tsmjAAA,2019-06-26T01:30:52.000Z,00517000002tsmjAAA,2019-06-26T01:30:52.000Z,Grenadines,Grenadines,,191
aDD170000008OUdGAM,FALSE,Turks And Caicos Islands,USD,00D1700000054ZdEAI,2019-06-26T01:30:52.000Z,00517000002tsmjAAA,2019-06-26T01:30:52.000Z,00517000002tsmjAAA,2019-06-26T01:30:52.000Z,Turks and Caicos Islands,Turks And Caicos Islands,TC,499
aDD170000008OUeGAM,FALSE,Malta,USD,00D1700000054ZdEAI,2019-06-26T01:30:52.000Z,00517000002tsmjAAA,2019-06-26T01:30:52.000Z,00517000002tsmjAAA,2019-06-26T01:30:52.000Z,Malta,Malta,MT,274
aDD170000008ORiGAM,FALSE,Hungary,USD,00D1700000054ZdEAI,2019-06-26T01:30:50.000Z,00517000002tsmjAAA,2019-06-26T01:30:50.000Z,00517000002tsmjAAA,2019-06-26T01:30:50.000Z,Hungary,Hungary,HU,211
aDD170000008ORjGAM,FALSE,Iceland,USD,00D1700000054ZdEAI,2019-06-26T01:30:50.000Z,00517000002tsmjAAA,2019-06-26T01:30:50.000Z,00517000002tsmjAAA,2019-06-26T01:30:50.000Z,Iceland,Iceland,IS,212
aDD170000008ORkGAM,FALSE,Myanmar (Burma),USD,00D1700000054ZdEAI,2019-06-26T01:30:50.000Z,00517000002tsmjAAA,2019-06-26T01:30:50.000Z,00517000002tsmjAAA,2019-06-26T01:30:50.000Z,Myanmar (Burma),Myanmar (Burma),MM,310
aDD170000008ORlGAM,FALSE,Namibia,USD,00D1700000054ZdEAI,2019-06-26T01:30:50.000Z,00517000002tsmjAAA,2019-06-26T01:30:50.000Z,00517000002tsmjAAA,2019-06-26T01:30:50.000Z,Namibia,Namibia,NA,313
aDD170000008ORmGAM,FALSE,Nauru,USD,00D1700000054ZdEAI,2019-06-26T01:30:50.000Z,00517000002tsmjAAA,2019-06-26T01:30:50.000Z,00517000002tsmjAAA,2019-06-26T01:30:50.000Z,Nauru,Nauru,NR,316
aDD170000008ORnGAM,FALSE,Saint Helena,USD,00D1700000054ZdEAI,2019-06-26T01:30:50.000Z,00517000002tsmjAAA,2019-06-26T01:30:50.000Z,00517000002tsmjAAA,2019-06-26T01:30:50.000Z,Saint Helena,Saint Helena,,443
aDD170000008ORoGAM,FALSE,Saint Kitts,USD,00D1700000054ZdEAI,2019-06-26T01:30:50.000Z,00517000002tsmjAAA,2019-06-26T01:30:50.000Z,00517000002tsmjAAA,2019-06-26T01:30:50.000Z,Saint Kitts,Saint Kitts,,447
aDD170000008ORpGAM,FALSE,India,USD,00D1700000054ZdEAI,2019-06-26T01:30:50.000Z,00517000002tsmjAAA,2019-06-26T01:30:50.000Z,00517000002tsmjAAA,2019-06-26T01:30:50.000Z,India,India,IN,213
aDD170000008ORqGAM,FALSE,Dubai,USD,00D1700000054ZdEAI,2019-06-26T01:30:50.000Z,00517000002tsmjAAA,2019-06-26T01:30:50.000Z,00517000002tsmjAAA,2019-06-26T01:30:50.000Z,United Arab Emirates - Dubai,Dubai,,141
aDD170000008ORrGAM,FALSE,Iran,USD,00D1700000054ZdEAI,2019-06-26T01:30:50.000Z,00517000002tsmjAAA,2019-06-26T01:30:50.000Z,00517000002tsmjAAA,2019-06-26T01:30:50.000Z,Iran,Iran,IR,216
aDD170000008ORxGAM,FALSE,New Caledonia,USD,00D1700000054ZdEAI,2019-06-26T01:30:50.000Z,00517000002tsmjAAA,2019-06-26T01:30:50.000Z,00517000002tsmjAAA,2019-06-26T01:30:50.000Z,New Caledonia,New Caledonia,NC,320
aDD170000008ORyGAM,FALSE,Anguilla,USD,00D1700000054ZdEAI,2019-06-26T01:30:50.000Z,00517000002tsmjAAA,2019-06-26T01:30:50.000Z,00517000002tsmjAAA,2019-06-26T01:30:50.000Z,Anguilla,Anguilla,AI,15
aDD170000008ORzGAM,FALSE,East Timor,USD,00D1700000054ZdEAI,2019-06-26T01:30:50.000Z,00517000002tsmjAAA,2019-06-26T01:30:50.000Z,00517000002tsmjAAA,2019-06-26T01:30:50.000Z,Indonesia - East Timor (Timor-Leste),East Timor,TL,483
aDD170000008OS0GAM,FALSE,Antigua,USD,00D1700000054ZdEAI,2019-06-26T01:30:50.000Z,00517000002tsmjAAA,2019-06-26T01:30:50.000Z,00517000002tsmjAAA,2019-06-26T01:30:50.000Z,Antigua,Antigua,,18
aDD170000008OS1GAM,FALSE,Estonia,USD,00D1700000054ZdEAI,2019-06-26T01:30:50.000Z,00517000002tsmjAAA,2019-06-26T01:30:50.000Z,00517000002tsmjAAA,2019-06-26T01:30:50.000Z,Estonia,Estonia,EE,156
aDD170000008OS2GAM,FALSE,Czech Republic,USD,00D1700000054ZdEAI,2019-06-26T01:30:50.000Z,00517000002tsmjAAA,2019-06-26T01:30:50.000Z,00517000002tsmjAAA,2019-06-26T01:30:50.000Z,Czech Republic,Czech Republic,CZ,131
aDD170000008OS3GAM,FALSE,Denmark,USD,00D1700000054ZdEAI,2019-06-26T01:30:50.000Z,00517000002tsmjAAA,2019-06-26T01:30:50.000Z,00517000002tsmjAAA,2019-06-26T01:30:50.000Z,Denmark,Denmark,DK,133
aDD170000008OS4GAM,FALSE,New Zealand,USD,00D1700000054ZdEAI,2019-06-26T01:30:50.000Z,00517000002tsmjAAA,2019-06-26T01:30:50.000Z,00517000002tsmjAAA,2019-06-26T01:30:50.000Z,New Zealand,New Zealand,NZ,345
aDD170000008OS5GAM,FALSE,Nicaragua,USD,00D1700000054ZdEAI,2019-06-26T01:30:50.000Z,00517000002tsmjAAA,2019-06-26T01:30:50.000Z,00517000002tsmjAAA,2019-06-26T01:30:50.000Z,Nicaragua,Nicaragua,NI,329
aDD170000008OS6GAM,FALSE,Niger,USD,00D1700000054ZdEAI,2019-06-26T01:30:50.000Z,00517000002tsmjAAA,2019-06-26T01:30:50.000Z,00517000002tsmjAAA,2019-06-26T01:30:50.000Z,Niger,Niger,NE,331
aDD170000008OSBGA2,FALSE,Eritrea,USD,00D1700000054ZdEAI,2019-06-26T01:30:50.000Z,00517000002tsmjAAA,2019-06-26T01:30:50.000Z,00517000002tsmjAAA,2019-06-26T01:30:50.000Z,Eritrea,Eritrea,ER,155
aDD170000008OSCGA2,FALSE,Ethiopia,USD,00D1700000054ZdEAI,2019-06-26T01:30:50.000Z,00517000002tsmjAAA,2019-06-26T01:30:50.000Z,00517000002tsmjAAA,2019-06-26T01:30:50.000Z,Ethiopia,Ethiopia,ET,627
aDD170000008OSDGA2,FALSE,Fiji,USD,00D1700000054ZdEAI,2019-06-26T01:30:50.000Z,00517000002tsmjAAA,2019-06-26T01:30:50.000Z,00517000002tsmjAAA,2019-06-26T01:30:50.000Z,Fiji,Fiji,FJ,164
aDD170000008OSEGA2,FALSE,Finland,USD,00D1700000054ZdEAI,2019-06-26T01:30:50.000Z,00517000002tsmjAAA,2019-06-26T01:30:50.000Z,00517000002tsmjAAA,2019-06-26T01:30:50.000Z,Finland,Finland,FI,165
aDD170000008OSFGA2,FALSE,France,USD,00D1700000054ZdEAI,2019-06-26T01:30:50.000Z,00517000002tsmjAAA,2019-06-26T01:30:50.000Z,00517000002tsmjAAA,2019-06-26T01:30:50.000Z,France,France,FR,170
aDD170000008OSGGA2,FALSE,French Guiana (Guyane),USD,00D1700000054ZdEAI,2019-06-26T01:30:50.000Z,00517000002tsmjAAA,2019-06-26T01:30:50.000Z,00517000002tsmjAAA,2019-06-26T01:30:50.000Z,French Guiana (Guyane),French Guiana (Guyane),GF,163
aDD170000008OSHGA2,FALSE,French Polynesia,USD,00D1700000054ZdEAI,2019-06-26T01:30:50.000Z,00517000002tsmjAAA,2019-06-26T01:30:50.000Z,00517000002tsmjAAA,2019-06-26T01:30:50.000Z,French Polynesia,French Polynesia,PF,169
aDD170000008OSIGA2,FALSE,Brazil,USD,00D1700000054ZdEAI,2019-06-26T01:30:50.000Z,00517000002tsmjAAA,2019-06-26T01:30:50.000Z,00517000002tsmjAAA,2019-06-26T01:30:50.000Z,Brazil,Brazil,BR,70
aDD170000008OSJGA2,FALSE,British Armed Forces,USD,00D1700000054ZdEAI,2019-06-26T01:30:50.000Z,00517000002tsmjAAA,2019-06-26T01:30:50.000Z,00517000002tsmjAAA,2019-06-26T01:30:50.000Z,British Armed Forces,British Armed Forces,,35
aDD170000008OSKGA2,FALSE,British Indian Ocean Territory,USD,00D1700000054ZdEAI,2019-06-26T01:30:50.000Z,00517000002tsmjAAA,2019-06-26T01:30:50.000Z,00517000002tsmjAAA,2019-06-26T01:30:50.000Z,British Indian Ocean Territory,British Indian Ocean Territory,IO,73
aDD170000008OSLGA2,FALSE,Guadeloupe,USD,00D1700000054ZdEAI,2019-06-26T01:30:50.000Z,00517000002tsmjAAA,2019-06-26T01:30:50.000Z,00517000002tsmjAAA,2019-06-26T01:30:50.000Z,Guadeloupe,Guadeloupe,,193
aDD170000008OSMGA2,FALSE,Afghanistan,USD,00D1700000054ZdEAI,2019-06-26T01:30:50.000Z,00517000002tsmjAAA,2019-06-26T01:30:50.000Z,00517000002tsmjAAA,2019-06-26T01:30:50.000Z,Afghanistan,Afghanistan,AF,4
aDD170000008OSNGA2,FALSE,Albania,USD,00D1700000054ZdEAI,2019-06-26T01:30:50.000Z,00517000002tsmjAAA,2019-06-26T01:30:50.000Z,00517000002tsmjAAA,2019-06-26T01:30:50.000Z,Albania,Albania,AL,7
aDD170000008OSOGA2,FALSE,Algeria,USD,00D1700000054ZdEAI,2019-06-26T01:30:50.000Z,00517000002tsmjAAA,2019-06-26T01:30:50.000Z,00517000002tsmjAAA,2019-06-26T01:30:50.000Z,Algeria,Algeria,DZ,10
aDD170000008OSPGA2,FALSE,Alto Adige Region,USD,00D1700000054ZdEAI,2019-06-26T01:30:50.000Z,00517000002tsmjAAA,2019-06-26T01:30:50.000Z,00517000002tsmjAAA,2019-06-26T01:30:50.000Z,Alto Adige Region,Alto Adige Region,,11
aDD170000008OSQGA2,FALSE,American Samoa,USD,00D1700000054ZdEAI,2019-06-26T01:30:50.000Z,00517000002tsmjAAA,2019-06-26T01:30:50.000Z,00517000002tsmjAAA,2019-06-26T01:30:50.000Z,American Samoa,American Samoa,AS,27
aDD170000008OSRGA2,FALSE,Andorra,USD,00D1700000054ZdEAI,2019-06-26T01:30:50.000Z,00517000002tsmjAAA,2019-06-26T01:30:50.000Z,00517000002tsmjAAA,2019-06-26T01:30:50.000Z,Andorra,Andorra,AD,12
aDD170000008OSSGA2,FALSE,Angola,USD,00D1700000054ZdEAI,2019-06-26T01:30:50.000Z,00517000002tsmjAAA,2019-06-26T01:30:50.000Z,00517000002tsmjAAA,2019-06-26T01:30:50.000Z,Angola,Angola,AO,14
aDD170000008OSTGA2,FALSE,Argentina,USD,00D1700000054ZdEAI,2019-06-26T01:30:50.000Z,00517000002tsmjAAA,2019-06-26T01:30:50.000Z,00517000002tsmjAAA,2019-06-26T01:30:50.000Z,Argentina,Argentina,AR,23
aDD170000008OSUGA2,FALSE,Armenia,USD,00D1700000054ZdEAI,2019-06-26T01:30:50.000Z,00517000002tsmjAAA,2019-06-26T01:30:50.000Z,00517000002tsmjAAA,2019-06-26T01:30:50.000Z,Armenia,Armenia,AM,24
aDD170000008OTzGAM,FALSE,Kyrgyzstan,USD,00D1700000054ZdEAI,2019-06-26T01:30:52.000Z,00517000002tsmjAAA,2019-06-26T01:30:52.000Z,00517000002tsmjAAA,2019-06-26T01:30:52.000Z,Kyrgyzstan,Kyrgyzstan,KG,242
aDD170000008OU0GAM,FALSE,Laos,USD,00D1700000054ZdEAI,2019-06-26T01:30:52.000Z,00517000002tsmjAAA,2019-06-26T01:30:52.000Z,00517000002tsmjAAA,2019-06-26T01:30:52.000Z,Laos,Laos,LA,244
aDD170000008OU1GAM,FALSE,Latvia,USD,00D1700000054ZdEAI,2019-06-26T01:30:52.000Z,00517000002tsmjAAA,2019-06-26T01:30:52.000Z,00517000002tsmjAAA,2019-06-26T01:30:52.000Z,Latvia,Latvia,LV,247
aDD170000008OU2GAM,FALSE,Lebanon,USD,00D1700000054ZdEAI,2019-06-26T01:30:52.000Z,00517000002tsmjAAA,2019-06-26T01:30:52.000Z,00517000002tsmjAAA,2019-06-26T01:30:52.000Z,Lebanon,Lebanon,LB,249
aDD170000008OU3GAM,FALSE,Lesotho,USD,00D1700000054ZdEAI,2019-06-26T01:30:52.000Z,00517000002tsmjAAA,2019-06-26T01:30:52.000Z,00517000002tsmjAAA,2019-06-26T01:30:52.000Z,Lesotho,Lesotho,LS,251
aDD170000008OU4GAM,FALSE,Maldives,USD,00D1700000054ZdEAI,2019-06-26T01:30:52.000Z,00517000002tsmjAAA,2019-06-26T01:30:52.000Z,00517000002tsmjAAA,2019-06-26T01:30:52.000Z,Maldives,Maldives,MV,272
aDD170000008OU5GAM,FALSE,Mali,USD,00D1700000054ZdEAI,2019-06-26T01:30:52.000Z,00517000002tsmjAAA,2019-06-26T01:30:52.000Z,00517000002tsmjAAA,2019-06-26T01:30:52.000Z,Mali,Mali,ML,273
aDD170000008OU6GAM,FALSE,Kiribati,USD,00D1700000054ZdEAI,2019-06-26T01:30:52.000Z,00517000002tsmjAAA,2019-06-26T01:30:52.000Z,00517000002tsmjAAA,2019-06-26T01:30:52.000Z,Kiribati,Kiribati,KI,238
aDD170000008OU7GAM,FALSE,Koper (Capo D'Istria),USD,00D1700000054ZdEAI,2019-06-26T01:30:52.000Z,00517000002tsmjAAA,2019-06-26T01:30:52.000Z,00517000002tsmjAAA,2019-06-26T01:30:52.000Z,Slovenia - Koper (Capo D'Istria),Koper (Capo D'Istria),,96
aDD170000008OU8GAM,FALSE,Israel,USD,00D1700000054ZdEAI,2019-06-26T01:30:52.000Z,00517000002tsmjAAA,2019-06-26T01:30:52.000Z,00517000002tsmjAAA,2019-06-26T01:30:52.000Z,Israel,Israel,IL,221
aDD170000008OSVGA2,FALSE,Aruba,USD,00D1700000054ZdEAI,2019-06-26T01:30:50.000Z,00517000002tsmjAAA,2019-06-26T01:30:50.000Z,00517000002tsmjAAA,2019-06-26T01:30:50.000Z,Aruba,Aruba,AW,25
aDD170000008OSWGA2,FALSE,Brunei,USD,00D1700000054ZdEAI,2019-06-26T01:30:50.000Z,00517000002tsmjAAA,2019-06-26T01:30:50.000Z,00517000002tsmjAAA,2019-06-26T01:30:50.000Z,Brunei,Brunei,BN,76
aDD170000008OSXGA2,FALSE,Bulgaria,USD,00D1700000054ZdEAI,2019-06-26T01:30:50.000Z,00517000002tsmjAAA,2019-06-26T01:30:50.000Z,00517000002tsmjAAA,2019-06-26T01:30:50.000Z,Bulgaria,Bulgaria,BG,79
aDD170000008OSYGA2,FALSE,Burkina Faso,USD,00D1700000054ZdEAI,2019-06-26T01:30:50.000Z,00517000002tsmjAAA,2019-06-26T01:30:50.000Z,00517000002tsmjAAA,2019-06-26T01:30:50.000Z,Burkina Faso,Burkina Faso,BF,81
aDD170000008OSZGA2,FALSE,Burundi,USD,00D1700000054ZdEAI,2019-06-26T01:30:50.000Z,00517000002tsmjAAA,2019-06-26T01:30:50.000Z,00517000002tsmjAAA,2019-06-26T01:30:50.000Z,Burundi,Burundi,BI,82
aDD170000008OSaGAM,FALSE,Cambodia (Kampuchea),USD,00D1700000054ZdEAI,2019-06-26T01:30:50.000Z,00517000002tsmjAAA,2019-06-26T01:30:50.000Z,00517000002tsmjAAA,2019-06-26T01:30:50.000Z,Cambodia,Cambodia (Kampuchea),KH,88
aDD170000008OSbGAM,FALSE,Cameroon,USD,00D1700000054ZdEAI,2019-06-26T01:30:50.000Z,00517000002tsmjAAA,2019-06-26T01:30:50.000Z,00517000002tsmjAAA,2019-06-26T01:30:50.000Z,Cameroon,Cameroon,CM,89
aDD170000008OScGAM,FALSE,"Gabon, The",USD,00D1700000054ZdEAI,2019-06-26T01:30:50.000Z,00517000002tsmjAAA,2019-06-26T01:30:50.000Z,00517000002tsmjAAA,2019-06-26T01:30:50.000Z,"Gabon, The","Gabon, The",GA,175
aDD170000008OSdGAM,FALSE,Gambia,USD,00D1700000054ZdEAI,2019-06-26T01:30:50.000Z,00517000002tsmjAAA,2019-06-26T01:30:50.000Z,00517000002tsmjAAA,2019-06-26T01:30:50.000Z,Gambia,Gambia,GM,177
aDD170000008OSeGAM,FALSE,Georgia,USD,00D1700000054ZdEAI,2019-06-26T01:30:50.000Z,00517000002tsmjAAA,2019-06-26T01:30:50.000Z,00517000002tsmjAAA,2019-06-26T01:30:50.000Z,Georgia,Georgia,GE,181
aDD170000008OSfGAM,FALSE,Germany,USD,00D1700000054ZdEAI,2019-06-26T01:30:50.000Z,00517000002tsmjAAA,2019-06-26T01:30:50.000Z,00517000002tsmjAAA,2019-06-26T01:30:50.000Z,Germany,Germany,DE,182
aDD170000008OSgGAM,FALSE,Australia,USD,00D1700000054ZdEAI,2019-06-26T01:30:50.000Z,00517000002tsmjAAA,2019-06-26T01:30:50.000Z,00517000002tsmjAAA,2019-06-26T01:30:50.000Z,Australia,Australia,AU,31
aDD170000008OShGAM,FALSE,Austria,USD,00D1700000054ZdEAI,2019-06-26T01:30:50.000Z,00517000002tsmjAAA,2019-06-26T01:30:50.000Z,00517000002tsmjAAA,2019-06-26T01:30:50.000Z,Austria,Austria,AT,33
aDD170000008OQWGA2,FALSE,Canada - New Brunswick,USD,00D1700000054ZdEAI,2019-06-26T01:30:50.000Z,00517000002tsmjAAA,2019-06-26T01:30:50.000Z,00517000002tsmjAAA,2019-06-26T01:30:50.000Z,Canada - New Brunswick,Canada - New Brunswick,,319
aDD170000008OQXGA2,FALSE,Solomon Islands,USD,00D1700000054ZdEAI,2019-06-26T01:30:50.000Z,00517000002tsmjAAA,2019-06-26T01:30:50.000Z,00517000002tsmjAAA,2019-06-26T01:30:50.000Z,Solomon Islands,Solomon Islands,SB,78
aDD170000008OQYGA2,FALSE,Somalia,USD,00D1700000054ZdEAI,2019-06-26T01:30:50.000Z,00517000002tsmjAAA,2019-06-26T01:30:50.000Z,00517000002tsmjAAA,2019-06-26T01:30:50.000Z,Somalia,Somalia,SO,433
aDD170000008OQZGA2,FALSE,South Africa,USD,00D1700000054ZdEAI,2019-06-26T01:30:50.000Z,00517000002tsmjAAA,2019-06-26T01:30:50.000Z,00517000002tsmjAAA,2019-06-26T01:30:50.000Z,South Africa,South Africa,ZA,395
aDD170000008OQaGAM,FALSE,Canada - Newfoundland,USD,00D1700000054ZdEAI,2019-06-26T01:30:50.000Z,00517000002tsmjAAA,2019-06-26T01:30:50.000Z,00517000002tsmjAAA,2019-06-26T01:30:50.000Z,Canada - Newfoundland,Canada - Newfoundland,,327
aDD170000008OQbGAM,FALSE,Canada - Northwest Territory,USD,00D1700000054ZdEAI,2019-06-26T01:30:50.000Z,00517000002tsmjAAA,2019-06-26T01:30:50.000Z,00517000002tsmjAAA,2019-06-26T01:30:50.000Z,Canada - Northwest Territory,Canada - Northwest Territory,,635
aDD170000008OQcGAM,FALSE,Canada - Nova Scotia,USD,00D1700000054ZdEAI,2019-06-26T01:30:50.000Z,00517000002tsmjAAA,2019-06-26T01:30:50.000Z,00517000002tsmjAAA,2019-06-26T01:30:50.000Z,Canada - Nova Scotia,Canada - Nova Scotia,,341
aDD170000008OQiGAM,FALSE,Sudan,USD,00D1700000054ZdEAI,2019-06-26T01:30:50.000Z,00517000002tsmjAAA,2019-06-26T01:30:50.000Z,00517000002tsmjAAA,2019-06-26T01:30:50.000Z,Sudan,Sudan,SD,454
aDD170000008OQjGAM,FALSE,Suriname,USD,00D1700000054ZdEAI,2019-06-26T01:30:50.000Z,00517000002tsmjAAA,2019-06-26T01:30:50.000Z,00517000002tsmjAAA,2019-06-26T01:30:50.000Z,Suriname,Suriname,SR,457
aDD170000008OQkGAM,FALSE,Swaziland,USD,00D1700000054ZdEAI,2019-06-26T01:30:50.000Z,00517000002tsmjAAA,2019-06-26T01:30:50.000Z,00517000002tsmjAAA,2019-06-26T01:30:50.000Z,Swaziland,Swaziland,SZ,460
aDD170000008OQlGAM,FALSE,Sweden,USD,00D1700000054ZdEAI,2019-06-26T01:30:50.000Z,00517000002tsmjAAA,2019-06-26T01:30:50.000Z,00517000002tsmjAAA,2019-06-26T01:30:50.000Z,Sweden,Sweden,SE,461
aDD170000008OQmGAM,FALSE,Switzerland,USD,00D1700000054ZdEAI,2019-06-26T01:30:50.000Z,00517000002tsmjAAA,2019-06-26T01:30:50.000Z,00517000002tsmjAAA,2019-06-26T01:30:50.000Z,Switzerland,Switzerland,CH,464
aDD170000008OQnGAM,FALSE,Syria,USD,00D1700000054ZdEAI,2019-06-26T01:30:50.000Z,00517000002tsmjAAA,2019-06-26T01:30:50.000Z,00517000002tsmjAAA,2019-06-26T01:30:50.000Z,Syria,Syria,SY,467
aDD170000008OQoGAM,FALSE,Taiwan,USD,00D1700000054ZdEAI,2019-06-26T01:30:50.000Z,00517000002tsmjAAA,2019-06-26T01:30:50.000Z,00517000002tsmjAAA,2019-06-26T01:30:50.000Z,Taiwan,Taiwan,TW,470
aDD170000008OQpGAM,FALSE,Portugal,USD,00D1700000054ZdEAI,2019-06-26T01:30:50.000Z,00517000002tsmjAAA,2019-06-26T01:30:50.000Z,00517000002tsmjAAA,2019-06-26T01:30:50.000Z,Portugal,Portugal,PT,369
aDD170000008OQqGAM,FALSE,Principe,USD,00D1700000054ZdEAI,2019-06-26T01:30:50.000Z,00517000002tsmjAAA,2019-06-26T01:30:50.000Z,00517000002tsmjAAA,2019-06-26T01:30:50.000Z,Principe,Principe,,374
aDD170000008OQrGAM,FALSE,Puerto Rico,USD,00D1700000054ZdEAI,2019-06-26T01:30:50.000Z,00517000002tsmjAAA,2019-06-26T01:30:50.000Z,00517000002tsmjAAA,2019-06-26T01:30:50.000Z,Puerto Rico,Puerto Rico,PR,375
aDD170000008OQsGAM,FALSE,Qatar,USD,00D1700000054ZdEAI,2019-06-26T01:30:50.000Z,00517000002tsmjAAA,2019-06-26T01:30:50.000Z,00517000002tsmjAAA,2019-06-26T01:30:50.000Z,Qatar,Qatar,QA,376
aDD170000008OSsGAM,FALSE,Vanuatu,USD,00D1700000054ZdEAI,2019-06-26T01:30:50.000Z,00517000002tsmjAAA,2019-06-26T01:30:50.000Z,00517000002tsmjAAA,2019-06-26T01:30:50.000Z,Vanuatu,Vanuatu,VU,516
aDD170000008OStGAM,FALSE,Vatican City (Holy See),USD,00D1700000054ZdEAI,2019-06-26T01:30:50.000Z,00517000002tsmjAAA,2019-06-26T01:30:50.000Z,00517000002tsmjAAA,2019-06-26T01:30:50.000Z,Vatican City (Holy See),Vatican City (Holy See),VA,601
aDD170000008OSuGAM,FALSE,Venezuela,USD,00D1700000054ZdEAI,2019-06-26T01:30:50.000Z,00517000002tsmjAAA,2019-06-26T01:30:50.000Z,00517000002tsmjAAA,2019-06-26T01:30:50.000Z,Venezuela,Venezuela,VE,517
aDD170000008OSvGAM,FALSE,Vietnam,USD,00D1700000054ZdEAI,2019-06-26T01:30:50.000Z,00517000002tsmjAAA,2019-06-26T01:30:50.000Z,00517000002tsmjAAA,2019-06-26T01:30:50.000Z,Vietnam,Vietnam,VN,520
aDD170000008OSwGAM,FALSE,Wallis and Futuna,USD,00D1700000054ZdEAI,2019-06-26T01:30:50.000Z,00517000002tsmjAAA,2019-06-26T01:30:50.000Z,00517000002tsmjAAA,2019-06-26T01:30:50.000Z,Wallis and Futuna,Wallis and Futuna,WF,608
aDD170000008OSxGAM,FALSE,Western Sahara,USD,00D1700000054ZdEAI,2019-06-26T01:30:50.000Z,00517000002tsmjAAA,2019-06-26T01:30:50.000Z,00517000002tsmjAAA,2019-06-26T01:30:50.000Z,Western Sahara,Western Sahara,EH,535
aDD170000008OSyGAM,FALSE,Yemen,USD,00D1700000054ZdEAI,2019-06-26T01:30:50.000Z,00517000002tsmjAAA,2019-06-26T01:30:50.000Z,00517000002tsmjAAA,2019-06-26T01:30:50.000Z,Yemen,Yemen,YE,539
aDD170000008OV0GAM,FALSE,United Kingdom,USD,00D1700000054ZdEAI,2019-06-26T01:48:48.000Z,00517000002tsmjAAA,2019-06-26T01:48:48.000Z,00517000002tsmjAAA,2019-06-26T01:48:48.000Z,United Kingdom,United Kingdom Of Great Britain And Northern Ireland,GB,505
aDD170000008OQtGAM,FALSE,Chad,USD,00D1700000054ZdEAI,2019-06-26T01:30:50.000Z,00517000002tsmjAAA,2019-06-26T01:30:50.000Z,00517000002tsmjAAA,2019-06-26T01:30:50.000Z,Chad,Chad,TD,104
aDD170000008OQuGAM,FALSE,Chile,USD,00D1700000054ZdEAI,2019-06-26T01:30:50.000Z,00517000002tsmjAAA,2019-06-26T01:30:50.000Z,00517000002tsmjAAA,2019-06-26T01:30:50.000Z,Chile,Chile,CL,108
aDD170000008OQvGAM,FALSE,China,USD,00D1700000054ZdEAI,2019-06-26T01:30:50.000Z,00517000002tsmjAAA,2019-06-26T01:30:50.000Z,00517000002tsmjAAA,2019-06-26T01:30:50.000Z,China,China,CN,109
aDD170000008OQwGAM,FALSE,Colombia,USD,00D1700000054ZdEAI,2019-06-26T01:30:50.000Z,00517000002tsmjAAA,2019-06-26T01:30:50.000Z,00517000002tsmjAAA,2019-06-26T01:30:50.000Z,Colombia,Colombia,CO,113
aDD170000008OQxGAM,FALSE,Canada - Quebec,USD,00D1700000054ZdEAI,2019-06-26T01:30:50.000Z,00517000002tsmjAAA,2019-06-26T01:30:50.000Z,00517000002tsmjAAA,2019-06-26T01:30:50.000Z,Canada - Quebec,Canada - Quebec,,377
aDD170000008OQyGAM,FALSE,"Congo, Republic Of The",USD,00D1700000054ZdEAI,2019-06-26T01:30:50.000Z,00517000002tsmjAAA,2019-06-26T01:30:50.000Z,00517000002tsmjAAA,2019-06-26T01:30:50.000Z,"Congo, Republic Of The","Congo, Republic Of The",CG,115
aDD170000008OQzGAM,FALSE,Tajikistan,USD,00D1700000054ZdEAI,2019-06-26T01:30:50.000Z,00517000002tsmjAAA,2019-06-26T01:30:50.000Z,00517000002tsmjAAA,2019-06-26T01:30:50.000Z,Tajikistan,Tajikistan,TJ,471
aDD170000008OR0GAM,FALSE,Tanzania (Tanganyika and Zanzibar),USD,00D1700000054ZdEAI,2019-06-26T01:30:50.000Z,00517000002tsmjAAA,2019-06-26T01:30:50.000Z,00517000002tsmjAAA,2019-06-26T01:30:50.000Z,Tanzania (Tanganyika and Zanzibar),Tanzania (Tanganyika and Zanzibar),TZ,474
aDD170000008OR1GAM,FALSE,Thailand,USD,00D1700000054ZdEAI,2019-06-26T01:30:50.000Z,00517000002tsmjAAA,2019-06-26T01:30:50.000Z,00517000002tsmjAAA,2019-06-26T01:30:50.000Z,Thailand,Thailand,TH,477
aDD170000008OR2GAM,FALSE,Togo,USD,00D1700000054ZdEAI,2019-06-26T01:30:50.000Z,00517000002tsmjAAA,2019-06-26T01:30:50.000Z,00517000002tsmjAAA,2019-06-26T01:30:50.000Z,Togo,Togo,TG,484
aDD170000008OR3GAM,FALSE,Tokelau,USD,00D1700000054ZdEAI,2019-06-26T01:30:50.000Z,00517000002tsmjAAA,2019-06-26T01:30:50.000Z,00517000002tsmjAAA,2019-06-26T01:30:50.000Z,Tokelau,Tokelau,TK,485
aDD170000008OR4GAM,FALSE,Tonga,USD,00D1700000054ZdEAI,2019-06-26T01:30:50.000Z,00517000002tsmjAAA,2019-06-26T01:30:50.000Z,00517000002tsmjAAA,2019-06-26T01:30:50.000Z,Tonga,Tonga,TO,486
aDD170000008OPpGAM,FALSE,Paraguay,USD,00D1700000054ZdEAI,2019-06-26T01:30:50.000Z,00517000002tsmjAAA,2019-06-26T01:30:50.000Z,00517000002tsmjAAA,2019-06-26T01:30:50.000Z,Paraguay,Paraguay,PY,358
aDD170000008OPqGAM,FALSE,Peru,USD,00D1700000054ZdEAI,2019-06-26T01:30:50.000Z,00517000002tsmjAAA,2019-06-26T01:30:50.000Z,00517000002tsmjAAA,2019-06-26T01:30:50.000Z,Peru,Peru,PE,362
aDD170000008OR5GAM,FALSE,Trinidad and Tobago,USD,00D1700000054ZdEAI,2019-06-26T01:30:50.000Z,00517000002tsmjAAA,2019-06-26T01:30:50.000Z,00517000002tsmjAAA,2019-06-26T01:30:50.000Z,Trinidad and Tobago,Trinidad and Tobago,TT,492
aDD170000008OR6GAM,FALSE,Tunisia,USD,00D1700000054ZdEAI,2019-06-26T01:30:50.000Z,00517000002tsmjAAA,2019-06-26T01:30:50.000Z,00517000002tsmjAAA,2019-06-26T01:30:50.000Z,Tunisia,Tunisia,TN,496
aDD170000008OR7GAM,FALSE,Turkey,USD,00D1700000054ZdEAI,2019-06-26T01:30:50.000Z,00517000002tsmjAAA,2019-06-26T01:30:50.000Z,00517000002tsmjAAA,2019-06-26T01:30:50.000Z,Turkey,Turkey,TR,497
aDD170000008OR8GAM,FALSE,Turkmenistan,USD,00D1700000054ZdEAI,2019-06-26T01:30:50.000Z,00517000002tsmjAAA,2019-06-26T01:30:50.000Z,00517000002tsmjAAA,2019-06-26T01:30:50.000Z,Turkmenistan,Turkmenistan,TM,498
aDD170000008OR9GAM,FALSE,Cook Islands,USD,00D1700000054ZdEAI,2019-06-26T01:30:50.000Z,00517000002tsmjAAA,2019-06-26T01:30:50.000Z,00517000002tsmjAAA,2019-06-26T01:30:50.000Z,Cook Islands,Cook Islands,CK,116
aDD170000008ORAGA2,FALSE,Costa Rica,USD,00D1700000054ZdEAI,2019-06-26T01:30:50.000Z,00517000002tsmjAAA,2019-06-26T01:30:50.000Z,00517000002tsmjAAA,2019-06-26T01:30:50.000Z,Costa Rica,Costa Rica,CR,120
aDD170000008ORBGA2,FALSE,Croatia,USD,00D1700000054ZdEAI,2019-06-26T01:30:50.000Z,00517000002tsmjAAA,2019-06-26T01:30:50.000Z,00517000002tsmjAAA,2019-06-26T01:30:50.000Z,Croatia,Croatia,HR,123
aDD170000008ORCGA2,FALSE,Liberia,USD,00D1700000054ZdEAI,2019-06-26T01:30:50.000Z,00517000002tsmjAAA,2019-06-26T01:30:50.000Z,00517000002tsmjAAA,2019-06-26T01:30:50.000Z,Liberia,Liberia,LR,254
aDD170000008ORDGA2,FALSE,Libya,USD,00D1700000054ZdEAI,2019-06-26T01:30:50.000Z,00517000002tsmjAAA,2019-06-26T01:30:50.000Z,00517000002tsmjAAA,2019-06-26T01:30:50.000Z,Libya,Libya,LY,255
aDD170000008OPrGAM,FALSE,Philippines,USD,00D1700000054ZdEAI,2019-06-26T01:30:50.000Z,00517000002tsmjAAA,2019-06-26T01:30:50.000Z,00517000002tsmjAAA,2019-06-26T01:30:50.000Z,Philippines,Philippines,PH,364
aDD170000008OPsGAM,FALSE,Pitcairn Islands,USD,00D1700000054ZdEAI,2019-06-26T01:30:50.000Z,00517000002tsmjAAA,2019-06-26T01:30:50.000Z,00517000002tsmjAAA,2019-06-26T01:30:50.000Z,Pitcairn Islands,Pitcairn Islands,PN,366
aDD170000008OPtGAM,FALSE,Poland,USD,00D1700000054ZdEAI,2019-06-26T01:30:50.000Z,00517000002tsmjAAA,2019-06-26T01:30:50.000Z,00517000002tsmjAAA,2019-06-26T01:30:50.000Z,Poland,Poland,PL,367
aDD170000008OPuGAM,FALSE,Abu Dhabi,USD,00D1700000054ZdEAI,2019-06-26T01:30:50.000Z,00517000002tsmjAAA,2019-06-26T01:30:50.000Z,00517000002tsmjAAA,2019-06-26T01:30:50.000Z,United Arab Emirates - Abu Dhabi,Abu Dhabi,,1
aDD170000008OPvGAM,FALSE,Antarctica,USD,00D1700000054ZdEAI,2019-06-26T01:30:50.000Z,00517000002tsmjAAA,2019-06-26T01:30:50.000Z,00517000002tsmjAAA,2019-06-26T01:30:50.000Z,Antarctica,Antarctica,AQ,16
aDD170000008OPwGAM,FALSE,"Bahamas, The",USD,00D1700000054ZdEAI,2019-06-26T01:30:50.000Z,00517000002tsmjAAA,2019-06-26T01:30:50.000Z,00517000002tsmjAAA,2019-06-26T01:30:50.000Z,"Bahamas, The","Bahamas, The",BS,36
aDD170000008OPxGAM,FALSE,British Virgin Islands,USD,00D1700000054ZdEAI,2019-06-26T01:30:50.000Z,00517000002tsmjAAA,2019-06-26T01:30:50.000Z,00517000002tsmjAAA,2019-06-26T01:30:50.000Z,British Virgin Islands,British Virgin Islands,,77
aDD170000008OPyGAM,FALSE,Canadian Armed Forces,USD,00D1700000054ZdEAI,2019-06-26T01:30:50.000Z,00517000002tsmjAAA,2019-06-26T01:30:50.000Z,00517000002tsmjAAA,2019-06-26T01:30:50.000Z,Canadian Armed Forces,Canadian Armed Forces,,85
aDD170000008OPzGAM,FALSE,Botswana,USD,00D1700000054ZdEAI,2019-06-26T01:30:50.000Z,00517000002tsmjAAA,2019-06-26T01:30:50.000Z,00517000002tsmjAAA,2019-06-26T01:30:50.000Z,Botswana,Botswana,BW,67
aDD170000008OQ0GAM,FALSE,"Korea, North",USD,00D1700000054ZdEAI,2019-06-26T01:30:50.000Z,00517000002tsmjAAA,2019-06-26T01:30:50.000Z,00517000002tsmjAAA,2019-06-26T01:30:50.000Z,"Korea, North","Korea, North",KP,334
aDD170000008OREGA2,FALSE,Miquelon,USD,00D1700000054ZdEAI,2019-06-26T01:30:50.000Z,00517000002tsmjAAA,2019-06-26T01:30:50.000Z,00517000002tsmjAAA,2019-06-26T01:30:50.000Z,Miquelon,Miquelon,,297
aDD170000008ORFGA2,FALSE,Moldova,USD,00D1700000054ZdEAI,2019-06-26T01:30:50.000Z,00517000002tsmjAAA,2019-06-26T01:30:50.000Z,00517000002tsmjAAA,2019-06-26T01:30:50.000Z,Moldova,Moldova,MD,298
aDD170000008ORGGA2,FALSE,Monaco,USD,00D1700000054ZdEAI,2019-06-26T01:30:50.000Z,00517000002tsmjAAA,2019-06-26T01:30:50.000Z,00517000002tsmjAAA,2019-06-26T01:30:50.000Z,Monaco,Monaco,MC,300
aDD170000008ORHGA2,FALSE,Mongolia,USD,00D1700000054ZdEAI,2019-06-26T01:30:50.000Z,00517000002tsmjAAA,2019-06-26T01:30:50.000Z,00517000002tsmjAAA,2019-06-26T01:30:50.000Z,Mongolia,Mongolia,MN,302
aDD170000008ORIGA2,FALSE,Montenegro,USD,00D1700000054ZdEAI,2019-06-26T01:30:50.000Z,00517000002tsmjAAA,2019-06-26T01:30:50.000Z,00517000002tsmjAAA,2019-06-26T01:30:50.000Z,Montenegro,Montenegro,ME,598
aDD170000008ORJGA2,FALSE,Canada - Saskatchewan,USD,00D1700000054ZdEAI,2019-06-26T01:30:50.000Z,00517000002tsmjAAA,2019-06-26T01:30:50.000Z,00517000002tsmjAAA,2019-06-26T01:30:50.000Z,Canada - Saskatchewan,Canada - Saskatchewan,,407
aDD170000008ORKGA2,FALSE,Tuvalu,USD,00D1700000054ZdEAI,2019-06-26T01:30:50.000Z,00517000002tsmjAAA,2019-06-26T01:30:50.000Z,00517000002tsmjAAA,2019-06-26T01:30:50.000Z,Tuvalu,Tuvalu,TV,500
aDD170000008ORLGA2,FALSE,Uganda,USD,00D1700000054ZdEAI,2019-06-26T01:30:50.000Z,00517000002tsmjAAA,2019-06-26T01:30:50.000Z,00517000002tsmjAAA,2019-06-26T01:30:50.000Z,Uganda,Uganda,UG,504
aDD170000008ORMGA2,FALSE,Ukraine,USD,00D1700000054ZdEAI,2019-06-26T01:30:50.000Z,00517000002tsmjAAA,2019-06-26T01:30:50.000Z,00517000002tsmjAAA,2019-06-26T01:30:50.000Z,Ukraine,Ukraine,UA,506
aDD170000008ORNGA2,FALSE,Canada - Yukon Territory,USD,00D1700000054ZdEAI,2019-06-26T01:30:50.000Z,00517000002tsmjAAA,2019-06-26T01:30:50.000Z,00517000002tsmjAAA,2019-06-26T01:30:50.000Z,Canada - Yukon Territory,Canada - Yukon Territory,,634
aDD170000008OU9GAM,FALSE,Italy,USD,00D1700000054ZdEAI,2019-06-26T01:30:52.000Z,00517000002tsmjAAA,2019-06-26T01:30:52.000Z,00517000002tsmjAAA,2019-06-26T01:30:52.000Z,Italy,Italy,IT,571
aDD170000008OUAGA2,FALSE,Ivory Coast (Cote d'Ivoire),USD,00D1700000054ZdEAI,2019-06-26T01:30:52.000Z,00517000002tsmjAAA,2019-06-26T01:30:52.000Z,00517000002tsmjAAA,2019-06-26T01:30:52.000Z,Ivory Coast (Cote d'Ivoire),Ivory Coast (Cote d'Ivoire),CI,121
aDD170000008OUBGA2,FALSE,Jamaica,USD,00D1700000054ZdEAI,2019-06-26T01:30:52.000Z,00517000002tsmjAAA,2019-06-26T01:30:52.000Z,00517000002tsmjAAA,2019-06-26T01:30:52.000Z,Jamaica,Jamaica,JM,223
aDD170000008OUCGA2,FALSE,Japan,USD,00D1700000054ZdEAI,2019-06-26T01:30:52.000Z,00517000002tsmjAAA,2019-06-26T01:30:52.000Z,00517000002tsmjAAA,2019-06-26T01:30:52.000Z,Japan,Japan,JP,224
aDD170000008OUDGA2,FALSE,Barbuda,USD,00D1700000054ZdEAI,2019-06-26T01:30:52.000Z,00517000002tsmjAAA,2019-06-26T01:30:52.000Z,00517000002tsmjAAA,2019-06-26T01:30:52.000Z,Barbuda,Barbuda,,43
aDD170000008OUEGA2,FALSE,Belarus,USD,00D1700000054ZdEAI,2019-06-26T01:30:52.000Z,00517000002tsmjAAA,2019-06-26T01:30:52.000Z,00517000002tsmjAAA,2019-06-26T01:30:52.000Z,Belarus,Belarus,BY,47
aDD170000008OUFGA2,FALSE,Belgium,USD,00D1700000054ZdEAI,2019-06-26T01:30:52.000Z,00517000002tsmjAAA,2019-06-26T01:30:52.000Z,00517000002tsmjAAA,2019-06-26T01:30:52.000Z,Belgium,Belgium,BE,49
aDD170000008OUGGA2,FALSE,Zimbabwe (Rhodesia),USD,00D1700000054ZdEAI,2019-06-26T01:30:52.000Z,00517000002tsmjAAA,2019-06-26T01:30:52.000Z,00517000002tsmjAAA,2019-06-26T01:30:52.000Z,Zimbabwe (Rhodesia),Zimbabwe (Rhodesia),ZW,546
aDD170000008OUHGA2,FALSE,Worldwide,USD,00D1700000054ZdEAI,2019-06-26T01:30:52.000Z,00517000002tsmjAAA,2019-06-26T01:30:52.000Z,00517000002tsmjAAA,2019-06-26T01:30:52.000Z,Worldwide,Worldwide,,537
aDD170000008OUIGA2,FALSE,Mayotte,USD,00D1700000054ZdEAI,2019-06-26T01:30:52.000Z,00517000002tsmjAAA,2019-06-26T01:30:52.000Z,00517000002tsmjAAA,2019-06-26T01:30:52.000Z,Mayotte,Mayotte,YT,285
