ID,NAME,CURRENCYISOCODE,MEDIA_ID__C,GALILEO_MEDIA_CODE__C,MEDIA_CODE__C,STATUS
aCy170000008OdiCAE,Free TV,USD,8,FTV,SYN,Item Created
aCy170000008OdjCAE,Free On Demand,USD,37,FOD,FOD,Item Created
aCy170000008OdkCAE,VOD,USD,30,VOD,VOD,Item Created
aCy170000008OdlCAE,PPV (Home),USD,3,PPVHm,HOM,Item Created
aCy170000008OdmCAE,PPV (Hotel),USD,4,PPVHt,HOT,Item Created
aCy170000008OdnCAE,NVOD,USD,32,NVOD,NVOD,Item Created
aCy170000008OdoCAE,SVOD,USD,34,SVOD,SVOD,Item Created
aCy170000008OdpCAE,Home Video,USD,10,HV,VID,Item Created
aCy170000008OdqCAE,EST,USD,36,EST,EST,Item Created
aCy170000008OdrCAE,Other Non-Theatrical,USD,6,NON,NON,Item Created
aCy170000008OdsCAE,Theatrical,USD,9,THEA,THE,Item Created
aCy170000008OdtCAE,Pay TV,USD,7,PTV,PAY,Item Created
aCy170000008OduCAE,Basic TV,USD,2,BTV,BAS,Item Created
aCy170000008OdvCAE,Wireless (TTV only),USD,11774,WIR,WIR,Item Created
aCy170000008OdwCAE,Internet (TTV only),USD,35,INTN,INTN,Item Created
aCy170000008OdxCAE,Free TV(Network),USD,5,NET,NET,Item Created
aCy170000008OdyCAE,Licensing and Merchandising,USD,39,LAM,L&M,Item Created
aCy170000008OdzCAE,Format,USD,31,FOR,FOR,Item Created
