"RULE_ID","CURRENCYISOCODE","RECORDTYPEID","RULE_NO","RULE_NO_ID__C","CONDITION_OPERAND_DETAILS__C","CONDITION_FIELD__C","CONDITION_MET_DAYS__C","CONDITION_MET_MONTHS__C","CONDITION_SET_OPERATOR__C","WINDOW_GUIDELINE_DATE__C","CONDITION_TIMEFRAME__C","CONDITION_TYPE__C","NEST_ORDER__C","RULE_ORDER__C","PARENT_RULE_DETAIL__C","SELF_REFERENCE_ID","PARENT_RD","CONDITIONAL_OPERAND_ID__C","CONDITION_CRITERIA__C","WINDOW_NAME","PRODUCT_TYPE_ID","DATE_SOURCE_TYPE_ID","CONDITION_TYPE_ID","WINDOW_GUIDELINE_DTL_ID","WINDOW_DTL_VERSION_ID","CONDITION_TREE_ID","PARENT_CONDITION_TREE_ID","SEQUENCE_ORDER","OPERATION_TREE_ID","PARENT_OPERATION_TREE_ID","SORT_ORDER","ERROR"
"RD_214","USD","0120v000000N0BrAAK","RN_1078_2","aCs0v0000004J4DCAU","","","0","0","","","","TBD","1","1","","","RD_213","","","VOD - France (Lib)","15","2","6","1078","8","17886","17884","0","18196","","","INVALID_OR_NULL_FOR_RESTRICTED_PICKLIST:Condition Type: bad value for restricted picklist field: TBD
Error fields: Condition_Type__c "
"RD_2686","USD","0120v000000N0BrAAK","RN_358_3","aCs0v0000004JdBCAU","Pay TV - Latin America (1R)-Direct to Video;Pay TV - Latin America (1R)-Direct to Video;Pay TV - Latin America (1R)-Direct to Video","Window Schedule Tag","","","IN","","","Case then","","","","","","","Extra Picture","Pay TV - Latin America (1R)","9","3","6","358","17","20280","20279","0","20603","","","INVALID_OR_NULL_FOR_RESTRICTED_PICKLIST:Condition Field: bad value for restricted picklist field: Window Schedule Tag
Error fields: Condition_Field__c "
"RD_2728","USD","0120v000000N0BrAAK","RN_359_3","aCs0v0000004JdGCAU","Pay TV - Latin America (1R)-Feature;Pay TV - Latin America (1R)-Feature;Pay TV - Latin America (1R)-Feature","Window Schedule Tag","","","IN","","","Case then","","","","","","","Extra Picture","Pay TV - Latin America (1R)","1","3","6","359","17","20215","20214","0","20527","","","INVALID_OR_NULL_FOR_RESTRICTED_PICKLIST:Condition Field: bad value for restricted picklist field: Window Schedule Tag
Error fields: Condition_Field__c "
"RD_2756","USD","0120v000000N0BrAAK","RN_360_3","aCs0v0000004JdNCAU","Pay TV - Latin America (1R)-Movie of the Week;Pay TV - Latin America (1R)-Movie of the Week;Pay TV - Latin America (1R)-Movie of the Week","Window Schedule Tag","","","IN","","","Case then","","","","","","","Extra Picture","Pay TV - Latin America (1R)","12","3","6","360","17","20292","20291","0","20620","","","INVALID_OR_NULL_FOR_RESTRICTED_PICKLIST:Condition Field: bad value for restricted picklist field: Window Schedule Tag
Error fields: Condition_Field__c "
"RD_4078","USD","0120v000000N0BrAAK","RN_649_2","aCs0v0000004JYMCA2","","","0","0","","","","TBD","1","1","","","RD_4077","","","VOD - France (Lib)","1","2","6","649","8","17890","17888","0","18195","","","INVALID_OR_NULL_FOR_RESTRICTED_PICKLIST:Condition Type: bad value for restricted picklist field: TBD
Error fields: Condition_Type__c "
"RD_4087","USD","0120v000000N0BrAAK","RN_650_2","aCs0v0000004JYQCA2","","","0","0","","","","TBD","1","1","","","RD_4086","","","VOD - France (Lib)","9","2","6","650","8","17898","17896","0","18197","","","INVALID_OR_NULL_FOR_RESTRICTED_PICKLIST:Condition Type: bad value for restricted picklist field: TBD
Error fields: Condition_Type__c "
"RD_4095","USD","0120v000000N0BrAAK","RN_652_2","aCs0v0000004JYVCA2","","","0","0","","","","TBD","1","1","","","RD_4094","","","VOD - France (Lib)","12","2","6","652","8","17894","17892","0","18198","","","INVALID_OR_NULL_FOR_RESTRICTED_PICKLIST:Condition Type: bad value for restricted picklist field: TBD
Error fields: Condition_Type__c "
