<?xml version="1.0" encoding="UTF-8"?>
<CustomTab xmlns="http://soap.sforce.com/2006/04/metadata">
    <description>Created by Lightning App Builder</description>
    <flexiPage>Sales_Regions</flexiPage>
    <label>Sales Regions</label>
    <mobileReady>true</mobileReady>
    <motif>Custom23: Mail</motif>
</CustomTab>
